﻿"Variable / Field Name","Form Name","Section Header","Field Type","Field Label","Choices, Calculations, OR Slider Labels","Field Note","Text Validation Type OR Show Slider Number","Text Validation Min","Text Validation Max",Identifier?,"Branching Logic (Show field only if...)","Required Field?","Custom Alignment","Question Number (surveys only)","Matrix Group Name","Matrix Ranking?","Field Annotation"
study_id,demographics_admission_information,,text,"1. Study ID",,,,,,,,,,,,,
second_ecmo,demographics_admission_information,,radio,"2. Was this a second run of ECMO?","0, Yes | 1, No",,,,,,,,,,,,
study_id_from_first_ecmo,demographics_admission_information,,text,"3. Study ID from first ECMO",,,,,,,[second_ecmo]='0',,,,,,
study_design,demographics_admission_information,,radio,"4. Study design","0, Prospective | 1, Retrospective",,,,,,,,,,,,
ecmo_mode,demographics_admission_information,,radio,"5. Initial ECMO Mode","0, V-V ECMO | 1, V-A ECMO",,,,,,,,,,,,
age,demographics_admission_information,"Demographics Information",text,"6. Age at ECMO Initiation",,years,number,18,,,,,,,,,
sex,demographics_admission_information,,dropdown,"7. Gender","0, Female | 1, Male",,,,,y,,,,,,,
race_ethnicity,demographics_admission_information,,dropdown,"8. Race/Ethnicity","0, African-American or Black | 1, Asian | 2, White | 3, Hawaiian or Native Pacific Islander | 4, Hispanic/Latino | 5, Native American or Alaska Native | 6, Other",,,,,,,,,,,,
race_ethnicity_otr,demographics_admission_information,,text,"9. Other Race/Ethnicity",,,,,,,[race_ethnicity]='6',,,,,,
zip,demographics_admission_information,,text,"10. ZIP",,,,,,y,,,,,,,
weight,demographics_admission_information,,text,"11. Weight at ECMO Implantation",,Kg,number,,,,,,,,,,
height,demographics_admission_information,,text,"12. Height at ECMO Implantation",,cm,number,,,,,,,,,,
bmi,demographics_admission_information,,calc,"13. BMI","round([weight]/(([height]/100*[height]/100)),1)",,,,,,,,,,,,
bsa,demographics_admission_information,,calc,"14. BSA",sqrt([height]*[weight]/3600),,,,,,,,,,,,
hosp_admit_date,demographics_admission_information,"Admission Information",text,"15. Admission Date",,,date_mdy,,,y,,,,,,,
hosp_dx,demographics_admission_information,,checkbox,"16. Primary Hospital Admitting Diagnosis","0, Acute Coronary Syndrome | 1, Cardiac Surgery (not transplant) | 2, Cardiomyopathy - Ischemic | 3, Cardiomyopathy - Non-ischemic | 4, Respiratory Failure - Hypercarbia | 5, Respiratory Failure - Hypoxemia | 6, Transplantation - Lung | 7, Transplantation - Heart | 8, Other",,,,,,[study_design]='0',,,,,,
hosp_dx_otr,demographics_admission_information,,text,"17. Other Primary Hospital Diagnosis",,,,,,,[hosp_dx(8)]='1',,,,,,
icu_admit_date,demographics_admission_information,,text,"18. ICU admission date",,,date_mdy,,,y,,,,,,,
hosp_icu_dx_match,demographics_admission_information,,radio,"19. Are the hospital and ICU primary diagnosis the same?","0, Yes | 1, No",,,,,,[study_design]='0',,,,,,
icu_dx,demographics_admission_information,,radio,"20. Primary ICU Diagnosis","0, Acute Coronary Syndrome | 1, Cardiac Surgery (not transplant) | 2, Cardiomyopathy - Ischemic | 3, Cardiomyopathy - Non-ischemic | 4, Respiratory Failure - Hypercarbia | 5, Respiratory Failure - Hypoxemia | 6, Transplantation - Lung | 7, Transplantation - Heart | 8, Other",,,,,,[hosp_icu_dx_match]='1',,,,,,
icu_dx_otr,demographics_admission_information,,text,"21. Other ICU Admitting Diagnosis",,,,,,,[icu_dx]='8',,,,,,
preexisting_cardiac_dz,prehospital_baseline_characteristics,,checkbox,"22. Pre-existing Cardiac Disease","0, Aortic Dissection | 1, Cardiomyopathy  -  Ischemic | 2, Cardiomyopathy  -  Non-ischemic | 3, Coronary Artery Disease | 4, History of Myocardial Infarction | 5, Hypertension  -  Systemic | 6, Hypertension  -  Pulmonary | 7, Right-sided heart failure | 8, None | 9, Other",,,,,,,,,,,,
preexisting_cardiac_dz_otr,prehospital_baseline_characteristics,,text,"23. Other Pre-existing Cardiac Disease",,,,,,,[preexisting_cardiac_dz(9)]='1',,,,,,
preexisting_lung_dz,prehospital_baseline_characteristics,,checkbox,"24. Pre-existing Lung Disease","0, Asthma | 1, COPD without home O2 requirement | 2, COPD with home O2 requirement | 3, Cystic Fibrosis | 4, PVOD | 5, Interstitial Pulmonary Fibrosis | 6, None | 7, Other",,,,,,[ecmo_mode]='0',,,,,,
preexisting_lung_dz_otr,prehospital_baseline_characteristics,,text,"25. Other chronic lung disease",,,,,,,[preexisting_lung_dz(7)]='1',,,,,,
past_cts,prehospital_baseline_characteristics,,checkbox,"26. Past Cardiothoracic Intervention","0, Aortic Surgery | 1, CABG | 2, Lung Resection | 3, Percutaneous Coronary Intervention | 4, Pulmonary Thromboendarterectomy | 5, Transplantation  -  Heart | 6, Transplantation  -  Lung | 7, Valve Replacement/Repair  -  Aortic | 8, Valve Replacement/Repair  -  Mitral | 9, Ventricular Assist Device | 10, None | 11, Other","Does not apply to surgery during ECMO admission",,,,,,,,,,,
past_cts_otr,prehospital_baseline_characteristics,,text,"27. Other Past Cardiothoracic Surgery",,,,,,,[past_cts(11)]='1',,,,,,
past_medical_hx,prehospital_baseline_characteristics,,checkbox,"28. Past Medical History","0, Chronic Lung Disease | 1, Chronic Liver Disease | 2, Chronic Renal Insufficiency | 3, Connective Tissue Disease | 4, Dementia | 5, Depression | 6, Diabetes Mellitus | 7, End-stage Renal Disease requiring dialysis | 8, Hepatitis B - positive | 9, Hepatitis C - positive | 10, History of Organ Transplantation (exc. Heart + Lung) | 11, History of Cancer | 12, HIV | 13, Hyperlipidemia | 19, Obstructive Sleep Apnea (OSA) | 14, Peripheral artery disease | 15, Rheumatologic or Autoimmune Disease | 16, Stroke/TIA | 17, None | 18, Other","contains variables for CCI in draft",,,,,,,,,,,
past_medical_hx_otr,prehospital_baseline_characteristics,,text,"29. Other Past Medical History",,,,,,,[past_medical_hx(18)]='1',,,,,,
past_organ_transpl,prehospital_baseline_characteristics,,checkbox,"30. Previous Organ Transplantation","0, Bone Marrow | 1, Intestine | 2, Thymus | 3, Kidney | 4, Liver | 5, Pancreas | 6, Other",,,,,,[past_medical_hx(10)]='1',,,,,,
past_organ_transpl_otr,prehospital_baseline_characteristics,,text,"31. Other Previous Organ Transplant",,,,,,,[past_organ_transpl(6)]='1',,,,,,
active_cancer,prehospital_baseline_characteristics,,checkbox,"32. Active Cancer(s)","0, Breast | 1, Gastrointestinal | 2, ENT | 3, Pulmonary | 4, Lymphoma/Leukemia | 5, Neurological | 6, Prostate | 7, Renal | 8, Reproductive | 9, Skin | 10, None | 11, Other",,,,,,[study_design]='0',,,,,,
active_cancer_otr,prehospital_baseline_characteristics,,text,"33. Other Cancer Type",,,,,,,[active_cancer(11)]='1',,,,,,
immunosuppression,prehospital_baseline_characteristics,,radio,"34. Immunosuppression","0, Yes | 1, No","Includes chronic steroids",,,,,,,,,,,
tobacco_use,prehospital_baseline_characteristics,,radio,"35. Smoking Tobacco Use","0, Recent | 1, Remote | 2, None",,,,,,,,,,,,
pack_years,prehospital_baseline_characteristics,,text,"36. Pack-Years",,"Number of pack-years = (packs smoked per day) × (years as a smoker)",,,,,"([tobacco_use]='1' or [tobacco_use]='2' ) and [study_design]='0'",,,,,,
alcohol_use,prehospital_baseline_characteristics,,radio,"37. Alcohol use","0, Non-drinker | 1, Rare or Occasional drink, ≤ 1 drink/week | 2, Social Drinker, 2-7 drinks/week | 3, Heavy drinker, 8+ drinks/week | 4, Declined to Answer",,,,,,,,,,,,
drug_use,prehospital_baseline_characteristics,,radio,"38. Drug Use","0, Recent (within 30 days) | 1, Remote | 2, None",,,,,,,,,,,,
drug_type,prehospital_baseline_characteristics,,checkbox,"39. Drug Type","0, Barbiturates | 1, Cannabis (Marijuana) | 2, Cocaine | 3, Hallucinogens | 4, Methamphetamine/amphetamine | 5, Narcotics",,,,,,"([drug_use]='1' or [drug_use]='2') and [study_design]='0'",,,,,,
indication_ecmo,indication_preecmo_illness_severity,,checkbox,"40. Indication for ECMO","0, Cardiogenic Shock | 1, Mixed shock | 2, Respiratory Failure | 3, Sepsis | 4, Other",,,,,,,,,,,,
indication_ecmo_otr,indication_preecmo_illness_severity,,text,"41. Other ECMO Indication",,,,,,,[indication_ecmo(4)]='1',,,,,,
etiology_shock,indication_preecmo_illness_severity,,checkbox,"42. Etiology of Shock","0, Acute Myocarditis/Myocarditis Suspected | 1, Acute rejection of transplant - Heart | 2, Acute rejection of transplant - Lungs | 3, Acute Pulmonary Embolism | 4, Acute unexplained heart failure | 5, Acute VSD | 6, ARDS - from influenza | 7, ARDS - from other lung infection | 8, ARDS - from sepsis | 9, ARDS - from other causes | 10, Bridge to Lung transplant | 11, Cardiac arrest/code | 12, Decompensated - COPD | 13, Decompensated - Ischemic cardiomyopathy | 14, Decompensated - Nonischemic cardiomyopathy | 15, Decompensated - Idiopathic pulmonary hypertension | 16, Drug Induced Shock | 17, Ischemic cardiomyopathy | 18, Myocardial infarction - Left | 19, Myocardial infarction - Right | 20, Post Cardiotomy Shock | 21, Post Lung Transplant Respiratory Failure | 22, Primary graft dysfunction - Heart | 23, Primary graft dysfunction - Lungs | 24, Pulmonary Contusion | 25, Refractory Ventricular Arrhythmia | 26, Transfusion Associated Lung Injury | 27, Valvular disease | 28, Other",,,,,,,,,,,,
etiology_shock_otr,indication_preecmo_illness_severity,,text,"43. Cardiogenic shock other",,,,,,,[etiology_shock(28)]='1',,,,,,
mi_treat,indication_preecmo_illness_severity,,checkbox,"44. Treatment used specifically for MI","0, CABG | 1, IABP | 2, Impella | 3, PCI | 4, Other | 5, None",,,,,,"[etiology_shock(18)]='1' or [etiology_shock(19)]='1'",,,,,,
mi_treat_otr,indication_preecmo_illness_severity,,text,"45. Other treatment used specifically for MI",,,,,,,[mi_treat(4)]='1',,,,,,
cts_pre_ecmo,indication_preecmo_illness_severity,"Post Cardiotomy Shock (PCS) Data",checkbox,"46. Prior Cardiothoracic Procedure","0, Aortic Repair - Arch | 1, Aortic Repair - Ascending | 2, Aortic Repair - Descending | 3, Coronary Artery Bypass (CABG) | 4, Percutaneous Coronary Intervention (PCI) | 5, Transplant - Heart | 6, Transplant - Lung | 7, Valve Intervention - Aortic | 8, Valve Intervention - Mitral | 9, Valve Intervention -  Tricuspid | 10, Valve Intervention -  Pulmonic | 11, None | 12, Other","Relative to Index admission",,,,,[etiology_shock(20)]='1',,,,,,
cts_pre_ecmo_otr,indication_preecmo_illness_severity,,text,"47. Prior CT procedure other",,,,,,,[cts_pre_ecmo(12)]='1',,,,,,
pcs_cpb_time,indication_preecmo_illness_severity,,text,"48. PCS Cardiopulmonary Bypass Time",,,time,,,,[etiology_shock(20)]='1',,,,,,
pcs_cross_clamp_time,indication_preecmo_illness_severity,,text,"49. PCS Xc Time",,,time,,,,[etiology_shock(20)]='1',,,,,,
witnessed_arrest,indication_preecmo_illness_severity,"Cardiac Arrest Data",radio,"50. Witnessed Arrest","0, Yes | 1, No",,,,,,"[etiology_shock(11)]='1' and [study_design]='0'",,,,,,
cpr,indication_preecmo_illness_severity,,radio,"51. CPR","0, External | 1, Internal | 2, None","variable name change (compressions)",,,,,"[etiology_shock(11)]='1' and [study_design]='0'",,,,,,
cpr_external_type,indication_preecmo_illness_severity,,radio,"52. External CPR Type","0, Manual | 1, Mechanical",,,,,,"[cpr]='0' and [study_design]='0'",,,,,,
cpr_mech_device_name,indication_preecmo_illness_severity,,text,"53. Mechanical CPR Device Name",,,,,,,"[cpr_external_type]='1' and [study_design]='0'",,,,,,
cpr_duration_in_minutes,indication_preecmo_illness_severity,,text,"54. Length of CPR in minutes",,"variable name change (code)",number,,,,"[etiology_shock(11)]='1' and [study_design]='0'",,,,,,
rosc_pre_ecmo_deploy,indication_preecmo_illness_severity,,radio,"55. Return Of Spontaneous Circulation prior to ECMO deploy","0, Yes | 1, No",,,,,,"[etiology_shock(11)]='1' and [study_design]='0'",,,,,,
init_hypothermia,indication_preecmo_illness_severity,,radio,"56. Initiation of hypothermia","0, Yes | 1, No","< 36 C",,,,,[etiology_shock(11)]='1',,,,,,
hypothermia_lowest_temp,indication_preecmo_illness_severity,,text,"57. Hypothermia Lowest Temperature",,Celsius,,,,,"[init_hypothermia]='0' and [study_design]='0'",,,,,,
duration_hypothermia,indication_preecmo_illness_severity,,text,"58. Duration of Hypothermia",,Hours,,,,,"[init_hypothermia]='0' and [study_design]='0'",,,,,,
resp_fail_heart_fail,indication_preecmo_illness_severity,,radio,"59. Can respiratory failure be explained entirely by cardiac dysfunction?","0, Yes | 1, No","At time of ECMO deploy",,,,,"([etiology_shock(6)]='1' or [etiology_shock(7)]='1' or [etiology_shock(8)]='1' or [etiology_shock(9)]='1') and [ecmo_mode]='0'",,,,,,
mcs_pre_ecmo,indication_preecmo_illness_severity,"Pre ECMO Mechanical Circulatory Support",radio,"60. Pre-ECMO Mechanical Circulatory Support (MCS)","0, Balloon Pump | 1, Cardiopulmonary Bypass | 2, HeartMate 2 | 3, HeartMate 3 | 4, HVAD | 5, Impella - 2.5 | 6, Impella - CP (3.5) | 7, Impella - LD 5.0 | 8, Impella - RP | 9, Tandem Heart LVAD | 10, Tandem Heart RVAD | 11, Centrimag LVAD | 12, Centrimag RVAD | 13, RVAD | 14, Other - Temporary device | 15, Other - Long-term device | 16, None",,,,,,,,,,,,
mcs_pre_ecmo_otr_temporary_device,indication_preecmo_illness_severity,,text,"61. Other Temporary MCS device",,,,,,,[mcs_pre_ecmo]='14',,,,,,
mcs_pre_ecmo_otr_long_term_device,indication_preecmo_illness_severity,,text,"62. Other Long-term MCS device",,,,,,,[mcs_pre_ecmo]='15',,,,,,
ecmo_init_date_time,characteristics_technical_information,,text,"63. ECMO initiation date and time",,"24hr time",datetime_mdy,,,y,,,,,,,
ecmo_discontinuation_date_time,characteristics_technical_information,,text,"64. ECMO discontinuation date and time",,"24hr time",datetime_mdy,,,y,,,,,,,
ecmo_los,characteristics_technical_information,,calc,"65. ECMO Length of Support","datediff([ecmo_init_date_time], [ecmo_discontinuation_date_time], ""d"", ""mdy"")",,,,,,,,,,,,
cann_physician_specialty,characteristics_technical_information,,radio,"66. Cannulating Physician Specialty","0, Cardiac surgeon | 1, Cardiologist | 2, Intensivist | 3, Trauma surgeon",,,,,,[study_design]='0',,,,,,
cann_loc,characteristics_technical_information,,radio,"67. Cannulation Location","0, Cath lab | 1, Emergency Department | 2, ICU | 3, Non-ICU WARD | 4, Operating Room | 5, OSH Transfer, already on ECMO | 6, Team goes to OSH → cannulates patient → transfers to Primary Facility | 7, Other",,,,,,,,,,,,
cann_loc_otr,characteristics_technical_information,,text,"68. Other cannulation location",,,,,,,[cann_loc]='7',,,,,,
ecmo_initial_mode,characteristics_technical_information,,radio,"69. Initial ECMO Mode","0, V-V ECMO | 1, V-A ECMO | 2, V-A-V ECMO | 3, LVAD ECMO (LV or LA/Aorta) | 4, RVAD ECMO (RA/PA) | 5, PA to LA ECMO - pumpless | 6, PA to LA ECMO - with pump | 7, Other",,,,,,,,,,,,
ecmo_initial_mode_otr,characteristics_technical_information,,text,"70. Initial ECMO Mode Other",,,,,,,[ecmo_initial_mode]='7',,,,,,
ecmo_conv_1,characteristics_technical_information,,radio,"71. ECMO Conversion 1","0, V-V ECMO | 1, V-A ECMO | 2, V-A-V ECMO | 3, LVAD ECMO (LV or LA/Aorta) | 4, RVAD ECMO (RA/PA) | 5, None | 6, Other",,,,,,,,,,,,
ecmo_conv_1_otr,characteristics_technical_information,,text,"72. ECMO Conversion 1 Other",,,,,,,[ecmo_conv_1]='6',,,,,,
ecmo_conv_1_date,characteristics_technical_information,,text,"73. ECMO Conversion 1 date and time",,"24hr time",datetime_mdy,,,y,,,,,,,
ecmo_conv_2,characteristics_technical_information,,radio,"74. ECMO Conversion 2","0, V-V ECMO | 1, V-A ECMO | 2, V-A-V ECMO | 3, LVAD ECMO (LV or LA/Aorta) | 4, RVAD ECMO (RA/PA) | 5, None | 6, Other",,,,,,"[ecmo_conv_1]='0' or [ecmo_conv_1]='1' or [ecmo_conv_1]='2' or [ecmo_conv_1]='3' or [ecmo_conv_1]='4' or [ecmo_conv_1]='6'",,,,,,
ecmo_conv_2_otr,characteristics_technical_information,,text,"75. ECMO Conversion 2 Other",,,,,,,[ecmo_conv_2]='6',,,,,,
ecmo_conv_2_date,characteristics_technical_information,,text,"76. ECMO Conversion 2 date and time",,"24hr time",datetime_mdy,,,y,"[ecmo_conv_2]='0' or [ecmo_conv_2]='1' or [ecmo_conv_2]='2' or [ecmo_conv_2]='3' or [ecmo_conv_2]='4' or [ecmo_conv_2]='6'",,,,,,
ecmo_conv_3,characteristics_technical_information,,radio,"77. ECMO Conversion 3","0, V-V ECMO | 1, V-A ECMO | 2, V-A-V ECMO | 3, LVAD ECMO (LV or LA/Aorta) | 4, RVAD ECMO (RA/PA) | 5, None | 6, Other",,,,,,"[ecmo_conv_2]='0' or [ecmo_conv_2]='1' or [ecmo_conv_2]='2' or [ecmo_conv_2]='3' or [ecmo_conv_2]='4' or [ecmo_conv_2]='6'",,,,,,
ecmo_conv_3_otr,characteristics_technical_information,,text,"78. ECMO Conversion 3 Other",,,,,,,[ecmo_conv_3]='6',,,,,,
ecmo_conv_3_date,characteristics_technical_information,,text,"79. ECMO Conversion 3 date and time",,"24hr time",datetime_mdy,,,y,"[ecmo_conv_3]='0' or [ecmo_conv_3]='1' or [ecmo_conv_3]='2' or [ecmo_conv_3]='3' or [ecmo_conv_3]='4' or [ecmo_conv_3]='6'",,,,,,
art_acc_1,characteristics_technical_information,"Arterial Limb Cannulation",radio,"80. Arterial Limb Access 1","0, Aorta (Central) | 1, Axillary Artery | 2, Femoral Artery | 3, Open or Percutaneous | 4, None | 5, Other",,,,,,,,,,,,
art_acc_1_otr,characteristics_technical_information,,text,"81. Other Arterial Limb Access 1",,"Note other type of arterial limb access",,,,,[art_acc_1]='5',,,,,,
art_acc_1_cann_size,characteristics_technical_information,,radio,"82. Size of Arterial Cannula 1","0, 15 Fr | 1, 16 Fr | 2, 17 Fr | 3, 18 Fr | 4, 19 Fr | 5, 20 Fr | 6, 21 Fr | 7, 22 Fr | 8, 23 Fr | 9, 24 Fr","French Size",,,,,"[art_acc_1]='0' or [art_acc_1]='1' or [art_acc_1]='2' or [art_acc_1]='3' or [art_acc_1]='5'",,,,,,
art_acc_1_graft_anast,characteristics_technical_information,,radio,"83. Arterial Limb Access 1 Graft anastomosis","0, Open, Direct Cannulation | 1, Graft anastomosis end to side | 2, Cutdown",,,,,,"[art_acc_1]='0' or [art_acc_1]='1' or [art_acc_1]='2' or [art_acc_1]='3' or [art_acc_1]='5'",,,,,,
art_acc_1_graft_anast_size,characteristics_technical_information,,text,"84. Size of Arterial Limb Access Graft 1",,"Diameter in mm",,,,,"[art_acc_1]='0' or [art_acc_1]='1' or [art_acc_1]='2' or [art_acc_1]='3' or [art_acc_1]='5'",,,,,,
art_acc_2,characteristics_technical_information,,radio,"85. Arterial Limb Access 2","0, Aorta (Central) | 1, Axillary Artery | 2, Femoral Artery | 3, Open or Percutaneous | 4, None | 5, Other",,,,,,"[art_acc_1]='0' or [art_acc_1]='1' or [art_acc_1]='2' or [art_acc_1]='3' or [art_acc_1]='5'",,,,,,
art_acc_2_otr,characteristics_technical_information,,text,"86. Other Arterial Limb Access 2",,"Note other type of arterial limb access",,,,,[art_acc_2]='5',,,,,,
art_acc_2_cann_size,characteristics_technical_information,,radio,"87. Size of Arterial Cannula 2","0, 15Fr | 1, 16Fr | 2, 17Fr | 3, 18Fr | 4, 19Fr | 5, 20Fr | 6, 21Fr | 7, 22Fr | 8, 23Fr | 9, 24Fr","French Size",,,,,"[art_acc_2]='0' or [art_acc_2]='1' or [art_acc_2]='2' or [art_acc_2]='3' or [art_acc_2]='5'",,,,,,
art_acc_2_graft_anast,characteristics_technical_information,,radio,"88. Arterial Limb Access 2 Graft anastomosis","0, Direct Cannulation | 1, Graft anastomosis end to side",,,,,,"[art_acc_2]='0' or [art_acc_2]='1' or [art_acc_2]='2' or [art_acc_2]='3' or [art_acc_2]='5'",,,,,,
art_acc_2_graft_anast_size,characteristics_technical_information,,text,"89. Size of Arterial Limb Access Graft 2",,"Diameter in mm",,,,,"[art_acc_2]='0' or [art_acc_2]='1' or [art_acc_2]='2' or [art_acc_2]='3' or [art_acc_2]='5'",,,,,,
ven_acc_1,characteristics_technical_information,,radio,"90. Venous Limb Access 1","0, Internal Jugular Vein | 1, Femoral Vein | 2, Right Atrium(Central) | 3, Single site dual lumen VV ECMO | 4, Other",,,,,,,,,,,,
ven_acc_1_otr,characteristics_technical_information,,text,"91. Other Venous Limb Access 1",,"Note other type of venous limb access",,,,,[ven_acc_1]='4',,,,,,
ven_acc_1_cann_size,characteristics_technical_information,,radio,"92. Size of Venous Cannula 1","0, 15 Fr | 1, 16 Fr | 2, 17 Fr | 3, 18 Fr | 4, 19 Fr | 5, 20 Fr | 6, 21 Fr | 7, 22 Fr | 8, 23 Fr | 9, 24 Fr | 10, 25 Fr | 11, 26 Fr | 12, 27 Fr | 13, 28 Fr | 14, 29 Fr | 15, 30 Fr | 16, 31 Fr","French Size",,,,,,,,,,,
ven_acc_2,characteristics_technical_information,,radio,"93. Venous Limb Access 2","0, Femoral Vein | 1, Internal Jugular Vein | 2, Right Atrium (central) | 3, None | 4, Other",,,,,,[ven_acc_1]<>'',,,,,,
ven_acc_2_otr,characteristics_technical_information,,text,"94. Other Venous Limb Access 2",,"Note other type of venous limb access",,,,,[ven_acc_2]='4',,,,,,
ven_acc_2_cann_size,characteristics_technical_information,,radio,"95. Size of Venous Cannula 2","0, 15 Fr | 1, 16 Fr | 2, 17 Fr | 3, 18 Fr | 4, 19 Fr | 5, 20 Fr | 6, 21 Fr | 7, 22 Fr | 8, 23 Fr | 9, 24 Fr | 10, 25 Fr | 11, 26 Fr | 12, 27 Fr | 13, 28 Fr | 14, 29 Fr | 15, 30 Fr | 16, 31 Fr","French Size",,,,,"[ven_acc_2]='0' or [ven_acc_2]='1' or [ven_acc_2]='2' or [ven_acc_2]='4'",,,,,,
ven_acc_3,characteristics_technical_information,,radio,"96. Venous Limb Access 3","0, Femoral Vein | 1, Internal Jugular Vein | 2, Right Atrium (central) | 3, None | 4, Other",,,,,,"[ven_acc_2]='0' or [ven_acc_2]='1' or [ven_acc_2]='2' or [ven_acc_2]='4'",,,,,,
ven_acc_3_otr,characteristics_technical_information,,text,"97. Other Venous Limb Access 3",,"Note other type of venous limb access",,,,,[ven_acc_3]='4',,,,,,
ven_acc_3_cann_size,characteristics_technical_information,,radio,"98. Size of Venous Cannula 3","0, 15 Fr | 1, 16 Fr | 2, 17 Fr | 3, 18 Fr | 4, 19 Fr | 5, 20 Fr | 6, 21 Fr | 7, 22 Fr | 8, 23 Fr | 9, 24 Fr | 10, 25 Fr | 11, 26 Fr | 12, 27 Fr | 13, 28 Fr | 14, 29 Fr | 15, 30 Fr | 16, 31 Fr","French Size",,,,,"[ven_acc_3]='0' or [ven_acc_3]='1' or [ven_acc_3]='2' or [ven_acc_3]='4'",,,,,,
lv_vent,characteristics_technical_information,,radio,"99. Left Ventricular Vent","0, Yes | 1, No","Placed at time of initial cannulation",,,,,,,,,,,
lv_vent_route,characteristics_technical_information,,radio,"100. LV Vent Route","0, Aortic Valve | 1, Left Atrium | 2, LV Apex | 3, PA Vent",,,,,,[lv_vent]='0',,,,,,
lv_vent_method,characteristics_technical_information,,radio,"101. LV Vent Method","0, Direct Cannulation | 1, IABP | 2, Impella 2.5 | 3, Impella 3.5 | 4, Impella 5.0 | 5, Septostomy | 6, Trans-septal cannula | 7, Other",,,,,,[lv_vent]='0',,,,,,
lv_vent_method_otr,characteristics_technical_information,,text,"102. LV Vent Method Other",,,,,,,[lv_vent_method]='7',,,,,,
lv_vent_reason,characteristics_technical_information,,checkbox,"103. LV Vent Reason","0, LV stagnant flow or clot formation | 1, Pulmonary Edema | 2, Refractory ventricular arrhythmia | 3, Routine | 4, Other",,,,,,[lv_vent]='0',,,,,,
lv_vent_reason_otr,characteristics_technical_information,,text,"104. LV Vent Reason Other",,,,,,,[lv_vent_reason(4)]='1',,,,,,
lv_vent_cann,characteristics_technical_information,,text,"105. LV Vent Cannula Size",,"French Size",,,,,[lv_vent]='0',,,,,,
lv_vent_date,characteristics_technical_information,,text,"106. Date of LV vent",,,datetime_mdy,,,y,[lv_vent]='0',,,,,,
dist_perf_cann,characteristics_technical_information,,radio,"107. Distal Extremity Perfusion Cannula","0, Yes | 1, No",,,,,,,,,,,,
dist_perf_cann_time_initial_cann,characteristics_technical_information,,radio,"108. Was Distal Cannulation performed at the same time as the Initial Cannulation","0, Yes | 1, No",,,,,,[dist_perf_cann]='0',,,,,,
dist_perf_cann_indication,characteristics_technical_information,,radio,"109. Indication for distal perfusion cannula","0, Routine | 1, Selective",,,,,,[dist_perf_cann]='0',,,,,,
dist_perf_cann_date,characteristics_technical_information,,text,"110. Distal Cannulation Date",,,datetime_mdy,,,,[dist_perf_cann_time_initial_cann]='1',,,,,,
dist_perf_cann_loc,characteristics_technical_information,,radio,"111. Distal Cannula Location","0, Axillary artery | 1, Common femoral artery | 2, Posterior Tibial Artery | 3, Superficial Femoral Artery | 4, Other",,,,,,[dist_perf_cann]='0',,,,,,
dist_perf_cann_size,characteristics_technical_information,,radio,"112. Distal Cannula Size","0, 4 Fr | 1, 5 Fr | 2, 6 Fr | 3, 7 Fr | 4, 8 Fr | 5, 9 Fr | 6, Graft | 7, Other","French Size",,,,,[dist_perf_cann]='0',,,,,,
circuit_coating,characteristics_technical_information,,radio,"113. Circuit coating","0, Bioline | 1, Carmeda | 2, Combo | 3, SmartRx | 4, Softline | 5, None | 6, Other",,,,,,,,,,,,
oxygenator,characteristics_technical_information,,radio,"114. Oxygenator","0, Cardiohelp | 1, NovaLung | 2, Quadrox-D | 3, Temporary CPB oxygenator | 4, Other",,,,,,,,,,,,
pump,characteristics_technical_information,,radio,"115. Pump","0, Cardiohelp | 1, Centrimag | 2, Revolution | 3, Centrifugal pump | 4, Rotaflow | 5, Roller",,,,,,,,,,,,
ventilator,preecmo,"ECMO Vital Signs at Baseline",radio,"116. Was the patient ever on a ventilator?","0, Yes | 1, No",,,,,,,,,,,,
ventilator_init_date,preecmo,,text,"117. Date of ventilator initiation",,,date_mdy,,,y,[ventilator]='0',,,,,,
temp_pre,preecmo,,text,"118. Pre-ECMO Temp",,C,number,,,,,,,,,,
map_pre,preecmo,,text,"119. Pre-ECMO Art Pressure",,mmHg,number,,,,,,,,,,
hr_pre,preecmo,,text,"120. Pre-ECMO HR",,bpm,number,,,,,,,,,,
rr_pre,preecmo,,text,"121. Pre-ECMO RR",,breaths/min,number,,,,"[study_design]='0' and [ecmo_mode]='0'",,,,,,
glasgow_comma_pre,preecmo,,text,"122. Pre-ECMO GCS",,,number,,,,,,,,,,
vasopres_pre,preecmo,"Drugs received at Baseline",checkbox,"123. Pre-ECMO Vasopressors","0, Norepinephrine | 1, Phenylephrine | 2, Vasopressin | 3, None | 4, Other",,,,,,[study_design]='0',,,,,,
vasopres_pre_otr,preecmo,,text,"124. Vasopressors Other",,,,,,,[vasopres_pre(4)]='1',,,,,,
inotropes_pre,preecmo,,checkbox,"125. Pre-ECMO Inotropes","0, Dobutamine | 1, Epinephrine | 2, Milrinone | 3, None | 4, Other",,,,,,[study_design]='0',,,,,,
inotropes_pre_otr,preecmo,,text,"126. Inotropes Other",,,,,,,[inotropes_pre(4)]='1',,,,,,
urineout_pre,preecmo,,text,"127. Pre-ECMO Urine Output",,,number,,,,,,,,,,
ventilator_pre,preecmo,,radio,"128. Pre-ECMO Ventilation","0, Yes | 1, No",,,,,,,,,,,,
ventilator_mode_pre,preecmo,,radio,"129. Pre-ECMO Ventilatory Mode","0, APRV | 1, High Frequency Oscillatory Ventilation | 2, Pressure Support | 3, Pressure Control | 4, SIMV | 5, Volume Control | 6, Other",,,,,,[ventilator_pre]='0',,,,,,
pao2_pre,preecmo,,text,"130. Pre-ECMO PaO2",,,number,,,,,,,,,,
fio2_pre,preecmo,,text,"131. Pre-ECMO FiO2",,%,number,,,,,,,,,,
p_f_ratio_pre,preecmo,,calc,"132. Pre-ECMO PaO2/FiO2 ratio","[pao2_pre] / [fio2_pre] * 100",,,,,,,,,,,,
ph_pre,preecmo,,text,"133. Pre-ECMO pH",,,number,,,,,,,,,,
paco2_pre,preecmo,,text,"134. Pre-ECMO PaCO2",,,number,,,,,,,,,,
pip_pre,preecmo,,text,"135. Pre-ECMO Peak Inspiratory Pressure",,,number,,,,[ecmo_mode]='0',,,,,,
mean_airway_press_pre,preecmo,,text,"136. Pre-ECMO Mean Airway Pressure",,,number,,,,[ecmo_mode]='0',,,,,,
peep_pre,preecmo,,text,"137. Pre-ECMO PEEP",,,number,,,,[ecmo_mode]='0',,,,,,
tidal_vol_pre,preecmo,,text,"138. Pre-ECMO Tidal Volume",,,number,,,,[ecmo_mode]='0',,,,,,
oxidx_pre,preecmo,,calc,"139. Pre-ECMO Oxygenation Index","0.01 * [fio2_pre]  * [mean_airway_press_pre]/ [pao2_pre]",,,,,,[ecmo_mode]='0',,,,,,
bmp_date_pre,preecmo,,text,"140. Pre-ECMO BMP Date",,,date_mdy,,,,,,,,,,
sodium_pre,preecmo,,text,"141. Pre-ECMO Sodium",,mEq/L,number,,,,,,,,,,
bun_pre,preecmo,,text,"142. Pre-ECMO BUN",,mg/dL,number,,,,,,,,,,
bicarb_pre,preecmo,,text,"143. Pre-ECMO Bicarbonate",,,number,,,,,,,,,,
lactate_pre,preecmo,,text,"144. Pre-ECMO Lactate",,,number,,,,,,,,,,
cre_pre,preecmo,,text,"145. Pre-ECMO Creatinine",,mg/dL,number,,,,,,,,,,
glu_pre,preecmo,,text,"146. Pre-ECMO Glucose",,,number,,,,,,,,,,
tot_protein_pre,preecmo,,text,"147. Pre-ECMO Total Protein",,,number,,,,,,,,,,
albumin_pre,preecmo,,text,"148. Pre-ECMO Alb",,g/dL,number,,,,,,,,,,
tbili_pre,preecmo,,text,"149. Pre-ECMO T. Bili",,mg/dL,number,,,,,,,,,,
ast_pre,preecmo,,text,"150. Pre-ECMO AST",,u/L,number,,,,,,,,,,
alt_pre,preecmo,,text,"151. Pre-ECMO ALT",,u/L,number,,,,,,,,,,
alk_phos_pre,preecmo,,text,"152. Pre-ECMO Tot Alk Phos",,,number,,,,,,,,,,
ldh_pre,preecmo,,text,"153. Pre-ECMO LDH",,,number,,,,,,,,,,
ptt_pre,preecmo,,text,"154. Pre-ECMO PTT",,,number,,,,,,,,,,
inr_pre,preecmo,,text,"155. Pre-ECMO INR",,"international units",number,,,,,,,,,,
fibrinogen_pre,preecmo,,radio,"156. Pre-ECMO IABP","0, Yes | 1, No",,,,,,,,,,,,
echo_pre,preecmo,,radio,"157. Pre-ECMO Echo","0, Yes | 1, No",,,,,,,,,,,,
echo_pre_date,preecmo,,text,"158. Pre-ECMO ECHO date",,,date_mdy,,,,"[echo_pre] = '0'",,,,,,
lvedd_pre,preecmo,,text,"159. Pre-ECMO LVEDD",,mm,number,,,,"[echo_pre] = '0'",,,,,,
lvesd_pre,preecmo,,text,"160. Pre-ECMO LVESD",,mm,number,,,,"[echo_pre] = '0'",,,,,,
ef_pre,preecmo,,text,"161. Pre-ECMO EF",,%,number,,,,"[echo_pre] = '0'",,,,,,
ai_pre,preecmo,,radio,"162. Pre-ECMO AI","0, None | 1, Trace | 2, Mild | 3, Moderate | 4, Severe",,,,,,"[echo_pre] = '0'",,,,,,
as_pre,preecmo,,radio,"163. Pre-ECMO AS","0, None | 1, Trace | 2, Mild | 3, Moderate | 4, Severe",,,,,,"[echo_pre] = '0'",,,,,,
mr_pre,preecmo,,radio,"164. Pre-ECMO MR","0, None | 1, Trace | 2, Mild | 3, Moderate | 4, Severe",,,,,,"[echo_pre] = '0'",,,,,,
ms_pre,preecmo,,radio,"165. Pre-ECMO MS","0, None | 1, Trace | 2, Mild | 3, Moderate | 4, Severe",,,,,,"[echo_pre] = '0'",,,,,,
tr_pre,preecmo,,radio,"166. Pre-ECMO TR","0, None | 1, Trace | 2, Mild | 3, Moderate | 4, Severe",,,,,,"[echo_pre] = '0'",,,,,,
cath_date_pre,preecmo,,text,"167. Pre-ECMO Cath Date",,,date_mdy,,,,,,,,,,
rhythm_pre,preecmo,,text,"168. Pre-ECMO Rhythm",,,number,,,,,,,,,,
sbp_pre,preecmo,,text,"169. Pre-ECMO SBP",,mmHg,number,,,,,,,,,,
dbp_pre,preecmo,,text,"170. Pre-ECMO DBP",,mmHg,number,,,,,,,,,,
pulm_sbp_pre,preecmo,,text,"171. Pre-ECMO PA SBP",,mmHg,number,,,,,,,,,,
pulm_dbp_pre,preecmo,,text,"172. Pre-ECMO PA DBP",,mmHg,number,,,,,,,,,,
pulm_map_pre,preecmo,,text,"173. Pre-ECMO PA MAP",,mmHg,number,,,,[study_design]='0',,,,,,
pcwp_pre,preecmo,,text,"174. Pre-ECMO PCWP",,mmHg,number,,,,[study_design]='0',,,,,,
cvp_rap_pre,preecmo,,text,"175. Pre-ECMO CVP/RAP",,mmHg,number,,,,[study_design]='0',,,,,,
svo2_pre,preecmo,,text,"176. Pre-ECMO SVO2",,,number,,,,[study_design]='0',,,,,,
co_pre,preecmo,,text,"177. Pre-ECMO CO",,L/min,number,,,,[study_design]='0',,,,,,
flow_0h,hour_0_24,"ECMO Vital Signs",text,"178. 0 h Flow",,L/min,number,,,,,,,,,,
flow_4h,hour_0_24,,text,"179. 4h Flow",,L/min,number,,,,,,,,,,
flow_24h,hour_0_24,,text,"180. 24h Flow",,L/min,number,,,,,,,,,,
temp_24h,hour_0_24,,text,"181. 24h Temp",,C,number,,,,,,,,,,
map_24h,hour_0_24,,text,"182. 24h MAP",,mmHg,number,,,,,,,,,,
hr_24h,hour_0_24,,text,"183. 24h HR",,bpm,number,,,,,,,,,,
rr_24h,hour_0_24,,text,"184. 24h RR",,breaths/min,number,,,,"[ecmo_mode]='0' and [study_design]='0'",,,,,,
prbc_24h,hour_0_24,"Blood Products received within 24 Hr",text,"185. 24h PRBC",,,number,,,,[study_design]='0',,,,,,
ffp_24h,hour_0_24,,text,"186. 24h FFP",,,number,,,,[study_design]='0',,,,,,
plt_24h,hour_0_24,,text,"187. 24h Plt",,,number,,,,[study_design]='0',,,,,,
cryop_24h,hour_0_24,,text,"188. 24h Cryoprecipitate",,,number,,,,[study_design]='0',,,,,,
vasopres_24h,hour_0_24,"Drugs received at 24 Hr",checkbox,"189. 24h Vasopressors","0, Norepinephrine | 1, Phenylephrine | 2, Vasopressin | 3, None | 4, Other",,,,,,[study_design]='0',,,,,,
vasopres_24h_otr,hour_0_24,,text,"190. Vasopressors Other",,,,,,,[vasopres_24h(4)]='1',,,,,,
inotropes_24h,hour_0_24,,checkbox,"191. 24h Inotropes","0, Dobutamine | 1, Epinephrine | 2, Milrinone | 3, None | 4, Other",,,,,,[study_design]='0',,,,,,
inotropes_24h_otr,hour_0_24,,text,"192. Inotropes Other",,,,,,,[inotropes_24h(4)]='1',,,,,,
urineout_24h,hour_0_24,,text,"193. 24h Urine Output",,,number,,,,,,,,,,
pao2_24h,hour_0_24,,text,"194. 24h PaO2",,,number,,,,,,,,,,
fio2_24h,hour_0_24,,text,"195. 24h FiO2",,%,number,,,,,,,,,,
p_f_ratio_24h,hour_0_24,,text,"196. 24h PaO2/FiO2 ratio",,,number,,,,,,,,,,
ph_24h,hour_0_24,,text,"197. 24h pH",,,number,,,,,,,,,,
paco2_24h,hour_0_24,,text,"198. 24h PaCO2",,,number,,,,,,,,,,
pip_24h,hour_0_24,,text,"199. 24h Peak Inspiratory Pressure",,,number,,,,[ecmo_mode]='0',,,,,,
mean_airway_press_24h,hour_0_24,,text,"200. 24h Mean Airway Pressure",,,number,,,,[ecmo_mode]='0',,,,,,
peep_24h,hour_0_24,,text,"201. 24h PEEP",,,number,,,,[ecmo_mode]='0',,,,,,
tidal_vol_24h,hour_0_24,,text,"202. 24h Tidal Volume",,,number,,,,[ecmo_mode]='0',,,,,,
oxidx_24h,hour_0_24,,calc,"203. Pre-ECMO Oxygenation Index","0.01 * [fio2_24h]  * [mean_airway_press_24h]/ [pao2_24h]",,,,,,[ecmo_mode]='0',,,,,,
bun_24h,hour_0_24,,text,"204. 24h BUN",,mg/dL,number,,,,,,,,,,
bicarb_24h,hour_0_24,,text,"205. 24h Bicarbonate",,,number,,,,,,,,,,
lactate_24h,hour_0_24,,text,"206. 24h Lactate",,,number,,,,,,,,,,
cre_24h,hour_0_24,,text,"207. 24h Creatinine",,mg/dL,number,,,,,,,,,,
glu_24h,hour_0_24,,text,"208. 24h Glucose",,,number,,,,,,,,,,
tot_protein_24h,hour_0_24,,text,"209. 24h Total Protein",,,number,,,,,,,,,,
albumin_24h,hour_0_24,,text,"210. 24h Alb",,g/dL,number,,,,,,,,,,
tbili_24h,hour_0_24,,text,"211. 24h T. Bili",,mg/dL,number,,,,,,,,,,
ast_24h,hour_0_24,,text,"212. 24h AST",,u/L,number,,,,,,,,,,
alt_24h,hour_0_24,,text,"213. 24h ALT",,u/L,number,,,,,,,,,,
alk_phos_24h,hour_0_24,,text,"214. 24h Tot Alk Phos",,,number,,,,,,,,,,
ldh_24h,hour_0_24,,text,"215. 24h LDH",,,number,,,,,,,,,,
ptt_24h,hour_0_24,,text,"216. 24h PTT",,,number,,,,,,,,,,
inr_24h,hour_0_24,,text,"217. 24h INR",,"international units",number,,,,,,,,,,
fibrinogen_24h,hour_0_24,,text,"218. 24h Fibrinogen",,,number,,,,[study_design]='0',,,,,,
rhythm_24h,hour_0_24,,text,"219. 24h Rhythm",,,number,,,,,,,,,,
sbp_24h,hour_0_24,,text,"220. 24h SBP",,mmHg,number,,,,,,,,,,
dbp_24h,hour_0_24,,text,"221. 24h DBP",,mmHg,number,,,,,,,,,,
pulm_sbp_24h,hour_0_24,,text,"222. 24h PA SBP",,mmHg,number,,,,,,,,,,
pulm_dbp_24h,hour_0_24,,text,"223. 24h PA DBP",,mmHg,number,,,,,,,,,,
pulm_map_24h,hour_0_24,,text,"224. 24h PA MAP",,mmHg,number,,,,[study_design]='0',,,,,,
pcwp_24h,hour_0_24,,text,"225. 24h PCWP",,mmHg,number,,,,[study_design]='0',,,,,,
cvp_rap_24h,hour_0_24,,text,"226. 24h CVP/RAP",,mmHg,number,,,,[study_design]='0',,,,,,
svo2_24h,hour_0_24,,text,"227. 24h SVO2",,,number,,,,[study_design]='0',,,,,,
co_24h,hour_0_24,,text,"228. 24h CO",,L/min,number,,,,[study_design]='0',,,,,,
flow_48h,hour_48,"ECMO Vital Signs at 48 Hours",text,"229. 48h Flow",,L/min,number,,,,,,,,,,
temp_48h,hour_48,,text,"230. 48h Temp",,C,number,,,,,,,,,,
map_48h,hour_48,,text,"231. 48h MAP",,mmHg,number,,,,,,,,,,
hr_48h,hour_48,,text,"232. 48h HR",,bpm,number,,,,,,,,,,
rr_48h,hour_48,,text,"233. 48h RR",,breaths/min,number,,,,"[ecmo_mode]='0' and [study_design]='0'",,,,,,
vasopres_48h,hour_48,"Drugs received at 48 Hr",checkbox,"234. 48h Vasopressors","0, Norepinephrine | 1, Phenylephrine | 2, Vasopressin | 3, None | 4, Other",,,,,,[study_design]='0',,,,,,
vasopres_48h_otr,hour_48,,text,"235. Vasopressors Other",,,,,,,[vasopres_48h(4)]='1',,,,,,
inotropes_48h,hour_48,,checkbox,"236. 48h Inotropes","0, Dobutamine | 1, Epinephrine | 2, Milrinone | 3, None | 4, Other",,,,,,[study_design]='0',,,,,,
inotropes_48h_otr,hour_48,,text,"237. Inotropes Other",,,,,,,[inotropes_48h(4)]='1',,,,,,
urineout_48h,hour_48,,text,"238. 48h Urine Output",,,number,,,,,,,,,,
pao2_48h,hour_48,,text,"239. 48h PaO2",,,number,,,,,,,,,,
fio2_48h,hour_48,,text,"240. 48h FiO2",,%,number,,,,,,,,,,
p_f_ratio_48h,hour_48,,text,"241. 48h PaO2/FiO2 ratio",,,number,,,,,,,,,,
ph_48h,hour_48,,text,"242. 48h pH",,,number,,,,,,,,,,
paco2_48h,hour_48,,text,"243. 48h PaCO2",,,number,,,,,,,,,,
pip_48h,hour_48,,text,"244. 48h Peak Inspiratory Pressure",,,number,,,,[ecmo_mode]='0',,,,,,
mean_airway_press_48h,hour_48,,text,"245. 48h Mean Airway Pressure",,,number,,,,[ecmo_mode]='0',,,,,,
peep_48h,hour_48,,text,"246. 48h PEEP",,,number,,,,[ecmo_mode]='0',,,,,,
tidal_vol_48h,hour_48,,text,"247. 48h Tidal Volume",,,number,,,,[ecmo_mode]='0',,,,,,
bun_48h,hour_48,,text,"248. 48h BUN",,mg/dL,number,,,,,,,,,,
bicarb_48h,hour_48,,text,"249. 48h Bicarbonate",,,number,,,,,,,,,,
lactate_48h,hour_48,,text,"250. 48h Lactate",,,number,,,,,,,,,,
cre_48h,hour_48,,text,"251. 48h Creatinine",,mg/dL,number,,,,,,,,,,
glu_48h,hour_48,,text,"252. 48h Glucose",,,number,,,,,,,,,,
tot_protein_48h,hour_48,,text,"253. 48h Total Protein",,,number,,,,,,,,,,
albumin_48h,hour_48,,text,"254. 48h Alb",,g/dL,number,,,,,,,,,,
tbili_48h,hour_48,,text,"255. 48h T. Bili",,mg/dL,number,,,,,,,,,,
ast_48h,hour_48,,text,"256. 48h AST",,u/L,number,,,,,,,,,,
alt_48h,hour_48,,text,"257. 48h ALT",,u/L,number,,,,,,,,,,
alk_phos_48h,hour_48,,text,"258. 48h Tot Alk Phos",,,number,,,,,,,,,,
ldh_48h,hour_48,,text,"259. 48h LDH",,,number,,,,,,,,,,
ptt_48h,hour_48,,text,"260. 48h PTT",,,number,,,,,,,,,,
inr_48h,hour_48,,text,"261. 48h INR",,"international units",number,,,,,,,,,,
fibrinogen_48h,hour_48,,text,"262. 48h Fibrinogen",,,number,,,,[study_design]='0',,,,,,
rhythm_48h,hour_48,,text,"263. 48h Rhythm",,,number,,,,,,,,,,
sbp_48h,hour_48,,text,"264. 48h SBP",,mmHg,number,,,,,,,,,,
dbp_48h,hour_48,,text,"265. 48h DBP",,mmHg,number,,,,,,,,,,
pulm_sbp_48h,hour_48,,text,"266. 48h PA SBP",,mmHg,number,,,,,,,,,,
pulm_dbp_48h,hour_48,,text,"267. 48h PA DBP",,mmHg,number,,,,,,,,,,
pulm_map_48h,hour_48,,text,"268. 48h PA MAP",,mmHg,number,,,,[study_design]='0',,,,,,
pcwp_48h,hour_48,,text,"269. 48h PCWP",,mmHg,number,,,,[study_design]='0',,,,,,
cvp_rap_48h,hour_48,,text,"270. 48h CVP/RAP",,mmHg,number,,,,[study_design]='0',,,,,,
svo2_48h,hour_48,,text,"271. 48h SVO2",,,number,,,,[study_design]='0',,,,,,
co_48h,hour_48,,text,"272. 48h CO",,L/min,number,,,,[study_design]='0',,,,,,
flow_72h,hour_72,"ECMO Vital Signs at 72 Hr",text,"273. 72h Flow",,L/min,number,,,,,,,,,,
temp_72h,hour_72,,text,"274. 72h Temp",,C,number,,,,,,,,,,
map_72h,hour_72,,text,"275. 72h MAP",,mmHg,number,,,,,,,,,,
hr_72h,hour_72,,text,"276. 72h HR",,bpm,number,,,,,,,,,,
rr_72h,hour_72,,text,"277. 72h RR",,breaths/min,number,,,,"[ecmo_mode]='0' and [study_design]='0'",,,,,,
vasopres_72h,hour_72,"Drugs received at 72 Hr",checkbox,"278. 72h Vasopressors","0, Norepinephrine | 1, Phenylephrine | 2, Vasopressin | 3, None | 4, Other",,,,,,[study_design]='0',,,,,,
vasopres_72h_otr,hour_72,,text,"279. Vasopressors Other",,,,,,,[vasopres_72h(4)]='1',,,,,,
inotropes_72h,hour_72,,checkbox,"280. 72h Inotropes","0, Dobutamine | 1, Epinephrine | 2, Milrinone | 3, None | 4, Other",,,,,,[study_design]='0',,,,,,
inotropes_72h_otr,hour_72,,text,"281. Inotropes Other",,,,,,,[inotropes_72h(4)]='1',,,,,,
urineout_72h,hour_72,,text,"282. 72h Urine Output",,,number,,,,,,,,,,
pao2_72h,hour_72,,text,"283. 72h PaO2",,,number,,,,,,,,,,
fio2_72h,hour_72,,text,"284. 72h FiO2",,%,number,,,,,,,,,,
p_f_ratio_72h,hour_72,,text,"285. 72h PaO2/FiO2 ratio",,,number,,,,,,,,,,
ph_72h,hour_72,,text,"286. 72h pH",,,number,,,,,,,,,,
paco2_72h,hour_72,,text,"287. 72h PaCO2",,,number,,,,,,,,,,
pip_72h,hour_72,,text,"288. 72h Peak Inspiratory Pressure",,,number,,,,[ecmo_mode]='0',,,,,,
mean_airway_press_72h,hour_72,,text,"289. 72h Mean Airway Pressure",,,number,,,,[ecmo_mode]='0',,,,,,
peep_72h,hour_72,,text,"290. 72h PEEP",,,number,,,,[ecmo_mode]='0',,,,,,
tidal_vol_72h,hour_72,,text,"291. 72h Tidal Volume",,,number,,,,[ecmo_mode]='0',,,,,,
bun_72h,hour_72,,text,"292. 72h BUN",,mg/dL,number,,,,,,,,,,
bicarb_72h,hour_72,,text,"293. 72h Bicarbonate",,,number,,,,,,,,,,
lactate_72h,hour_72,,text,"294. 72h Lactate",,,number,,,,,,,,,,
cre_72h,hour_72,,text,"295. 72h Creatinine",,mg/dL,number,,,,,,,,,,
glu_72h,hour_72,,text,"296. 72h Glucose",,,number,,,,,,,,,,
tot_protein_72h,hour_72,,text,"297. 72h Total Protein",,,number,,,,,,,,,,
albumin_72h,hour_72,,text,"298. 72h Alb",,g/dL,number,,,,,,,,,,
tbili_72h,hour_72,,text,"299. 72h T. Bili",,mg/dL,number,,,,,,,,,,
ast_72h,hour_72,,text,"300. 72h AST",,u/L,number,,,,,,,,,,
alt_72h,hour_72,,text,"301. 72h ALT",,u/L,number,,,,,,,,,,
alk_phos_72h,hour_72,,text,"302. 72h Tot Alk Phos",,,number,,,,,,,,,,
ldh_72h,hour_72,,text,"303. 72h LDH",,,number,,,,,,,,,,
ptt_72h,hour_72,,text,"304. 72h PTT",,,number,,,,,,,,,,
inr_72h,hour_72,,text,"305. 72h INR",,"international units",number,,,,,,,,,,
fibrinogen_72h,hour_72,,text,"306. 72h Fibrinogen",,,number,,,,[study_design]='0',,,,,,
rhythm_72h,hour_72,,text,"307. 72h Rhythm",,,number,,,,,,,,,,
sbp_72h,hour_72,,text,"308. 72h SBP",,mmHg,number,,,,,,,,,,
dbp_72h,hour_72,,text,"309. 72h DBP",,mmHg,number,,,,,,,,,,
pulm_sbp_72h,hour_72,,text,"310. 72h PA SBP",,mmHg,number,,,,,,,,,,
pulm_dbp_72h,hour_72,,text,"311. 72h PA DBP",,mmHg,number,,,,,,,,,,
pulm_map_72h,hour_72,,text,"312. 72h PA MAP",,mmHg,number,,,,[study_design]='0',,,,,,
pcwp_72h,hour_72,,text,"313. 72h PCWP",,mmHg,number,,,,[study_design]='0',,,,,,
cvp_rap_72h,hour_72,,text,"314. 72h CVP/RAP",,mmHg,number,,,,[study_design]='0',,,,,,
svo2_72h,hour_72,,text,"315. 72h SVO2",,,number,,,,[study_design]='0',,,,,,
co_72h,hour_72,,text,"316. 72h CO",,L/min,number,,,,[study_design]='0',,,,,,
flow_avg,during_ecmo,"ECMO Flow",calc,"317. Avg. Flow","([flow_0h] + [flow_4h] + [flow_24h] + [flow_48h] + [flow_72h])/ 5",L/min,,,,,,,,,,,
flow_index,during_ecmo,,text,"318. Flow Index",,,number,,,,,,,,,,
prbc,during_ecmo,"Blood products received during ECMO",text,"319. PRBC",,,number,,,,[study_design]='0',,,,,,
ffp,during_ecmo,,text,"320. FFP",,,number,,,,[study_design]='0',,,,,,
plt,during_ecmo,,text,"321. Plt",,,number,,,,[study_design]='0',,,,,,
cryop,during_ecmo,,text,"322. Cryoprecipitate",,,number,,,,,,,,,,
vasodil,during_ecmo,"Drugs received during ECMO",checkbox,"323. Vasodilator Used","0, Flolan | 1, Nitric Oxide | 2, None | 3, Other",,,,,,,,,,,,
vasodil_otr,during_ecmo,,text,"324. Vasodilator Other",,,,,,,[vasodil(3)]='1',,,,,,
antibiotics,during_ecmo,,checkbox,"325. Type of Antibiotic","0, Aminoglycosides (gentamycin) | 1, Cephalosporins (cephalexin) | 2, Fluoroquinolones (levofloxacin) | 3, Macrolides (erythromycin, azithromycin) | 4, Penicillins (penicillin, amoxicillin) | 5, Sulfonamides (trimethoprim, co-trimoxazole) | 6, Tetracyclines (tetracycline, doxycycline) | 7, None",,,,,,,,,,,,
neuroblock,during_ecmo,,radio,"326. Neuromuscular blocker","0, Succinylcholine (SCh) | 1, Rocuronium | 2, Vecuronium | 3, Unspecified Neuromuscular Blocking Agent (NMBA) | 4, None used",,,,,,"[ecmo_mode]='0' and [study_design]='0'",,,,,,
sedatives,during_ecmo,,checkbox,"327. Sedatives used","0, Barbiturates - Methohexital, Thiopental | 1, Benzodiazepines - Diazepam, Lorazepam, Midazolam | 2, Dexmedetomidine | 3, Ketamine | 4, Neuroleptics -Haloperidol, Olanzapine, Quetiapine, Risperidone | 5, Opioid analgesics -Fentanyl, Hydromorphone, Morphine, Remifentanil | 6, Propofol | 7, Unspecified Sedative | 8, None",,,,,,[ecmo_mode]='0',,,,,,
antifibrin,during_ecmo,,checkbox,"328. Antifibrinolytics","0, Aminocaproic acid | 1, Tranexemic acid | 2, Unspecified Antifibrinolytic | 3, None",,,,,,,,,,,,
ventilator_days,during_ecmo,,text,"329. Days on Ventilator",,,number,,,,,,,,,,
hit_antibody,during_ecmo,,radio,"330. Positive Heparin-PF4 Antibody","0, Yes | 1, No",,,,,,,,,,,,
sra,during_ecmo,,radio,"331. Serotonin release assay","0, Negative | 1, Positive | 2, Not done",,,,,,[hit_antibody]='0',,,,,,
bnp,during_ecmo,,text,"332. BNP",,,number,,,,,,,,,,
echo_date,during_ecmo,"Echo during ECMO",text,"333. ECHO date",,,date_mdy,,,,,,,,,,
lvedd,during_ecmo,,text,"334. LVEDD",,mm,number,,,,,,,,,,
lvesd,during_ecmo,,text,"335. LVESD",,mm,number,,,,,,,,,,
ef,during_ecmo,,text,"336. EF",,%,number,,,,,,,,,,
ai,during_ecmo,,radio,"337. AI","0, None | 1, Trace | 2, Mild | 3, Moderate | 4, Severe",,,,,,,,,,,,
as,during_ecmo,,radio,"338. AS","0, None | 1, Trace | 2, Mild | 3, Moderate | 4, Severe",,,,,,,,,,,,
mr,during_ecmo,,radio,"339. MR","0, None | 1, Trace | 2, Mild | 3, Moderate | 4, Severe",,,,,,,,,,,,
ms,during_ecmo,,radio,"340. MS","0, None | 1, Trace | 2, Mild | 3, Moderate | 4, Severe",,,,,,,,,,,,
tr,during_ecmo,,radio,"341. TR","0, None | 1, Trace | 2, Mild | 3, Moderate | 4, Severe",,,,,,,,,,,,
factor_7,during_ecmo,"Blood products received during course of ECMO",radio,"342. Factor 7","0, Yes | 1, No",,,,,,[study_design]='0',y,,,,,
factor_7_dose,during_ecmo,,text,"343. Factor 7 Dose",,,,,,,[factor_7]='0',,,,,,
factor_7_initiated,during_ecmo,,radio,"344. Factor 7 initiated","0, Before ECMO | 1, On ECMO",,,,,,"[factor_7]='0' and [study_design]='0'",,,,,,
pcc,during_ecmo,,radio,"345. PCC","0, Yes | 1, No",,,,,,[study_design]='0',y,,,,,
pcc_dose,during_ecmo,,text,"346. PCC Dose",,,,,,,[pcc]='0',,,,,,
pcc_initiated,during_ecmo,,radio,"347. PCC initiated","0, Before ECMO | 1, On ECMO",,,,,,"[factor_7]='0' and [study_design]='0'",,,,,,
anticoag,during_ecmo,"Drugs received during course of ECMO",radio,"348. Anticoagulation","0, Yes | 1, No",,,,,,,,,,,,
anticoag_type,during_ecmo,,checkbox,"349. Type of anticoagulation","0, Argatroban drip | 1, Bivalirudin drip | 2, Heparin drip | 3, Lovenox injections | 4, Other","Check if used at any point in ECMO run",,,,,[anticoag]='0',,,,,,
anticoag_init_time,during_ecmo,,text,"350. Anticoagulation Initiation Time",,,datetime_mdy,,,,[study_design]='0',,,,,,
anticoag_end_time,during_ecmo,,text,"351. Anticoagulation End Time",,,datetime_mdy,,,,[study_design]='0',,,,,,
anticoag_duration,during_ecmo,,calc,"352. Anticoagulation Duration","datediff([anticoag_init_time],[anticoag_end_time],""h"",""MDY"")",,,,,,[study_design]='0',,,,,,
ptt_min,during_ecmo,"Minimum Values",text,"353. Min PTT",,,number,,,,,,,,,,
ptt_min_date,during_ecmo,,text,"354. Date of Min PTT",,,date_mdy,,,,,,,,,,
bun_max,during_ecmo,"Maximum Values",text,"355. Max BUN",,mg/dL,number,,,,,,,,,,
bun_max_date,during_ecmo,,text,"356. Date of Max BUN",,mg/dL,date_mdy,,,,,,,,,,
lactate_max,during_ecmo,,text,"357. Max Lactate",,,number,,,,,,,,,,
lactate_max_date,during_ecmo,,text,"358. Date of Max Lactate",,,date_mdy,,,,,,,,,,
cre_max,during_ecmo,,text,"359. Max Creatinine",,mg/dL,number,,,,,,,,,,
cre_max_date,during_ecmo,,text,"360. Date of Max Creatinine",,mg/dL,date_mdy,,,,,,,,,,
tbili_max,during_ecmo,,text,"361. Max T. Bili",,mg/dL,number,,,,,,,,,,
tbili_max_date,during_ecmo,,text,"362. Date of Max T. Bili",,mg/dL,date_mdy,,,,,,,,,,
ast_max,during_ecmo,,text,"363. Max AST",,u/L,number,,,,,,,,,,
ast_max_date,during_ecmo,,text,"364. Date of Max AST",,u/L,date_mdy,,,,,,,,,,
alt_max,during_ecmo,,text,"365. Max ALT",,u/L,number,,,,,,,,,,
alt_max_date,during_ecmo,,text,"366. Date of Max ALT",,u/L,date_mdy,,,,,,,,,,
ldh_max,during_ecmo,,text,"367. Max LDH",,,number,,,,,,,,,,
ldh_max_date,during_ecmo,,text,"368. Date of Max LDH",,,date_mdy,,,,,,,,,,
ptt_max,during_ecmo,,text,"369. Max PTT",,,number,,,,,,,,,,
ptt_max_date,during_ecmo,,text,"370. Date of Max PTT",,,date_mdy,,,,,,,,,,
inr_max,during_ecmo,,text,"371. Max INR",,"international units",number,,,,,,,,,,
inr_max_date,during_ecmo,,text,"372. Date of Max INR",,"international units",date_mdy,,,,,,,,,,
peak_trop_max,during_ecmo,,text,"373. Max Peak Trop",,,number,,,,,,,,,,
peak_trop_max_date,during_ecmo,,text,"374. Date of Max Peak Trop",,,date_mdy,,,,,,,,,,
tot_cre_kinase_max,during_ecmo,,text,"375. Max Total CK",,,number,,,,,,,,,,
tot_cre_kinase_max_date,during_ecmo,,text,"376. Date of Max Total CK",,,date_mdy,,,,,,,,,,
cre_kinase_mb_max,during_ecmo,,text,"377. Max CK-MB",,,number,,,,,,,,,,
cre_kinase_mb_max_date,during_ecmo,,text,"378. Date of Max CK-MB",,,date_mdy,,,,,,,,,,
echo_post_date,post_ecmo,"Echo data, Post ECMO",text,"379. Post-ECMO ECHO date",,,date_mdy,,,,,,,,,,
lvedd_post,post_ecmo,,text,"380. Post-ECMO LVEDD",,mm,number,,,,,,,,,,
lvesd_post,post_ecmo,,text,"381. Post-ECMO LVESD",,mm,number,,,,,,,,,,
ef_post,post_ecmo,,text,"382. Post-ECMO EF",,%,number,,,,,,,,,,
ai_post,post_ecmo,,radio,"383. Post-ECMO AI","0, None | 1, Trace | 2, Mild | 3, Moderate | 4, Severe",,,,,,,,,,,,
as_post,post_ecmo,,radio,"384. Post-ECMO AS","0, None | 1, Trace | 2, Mild | 3, Moderate | 4, Severe",,,,,,,,,,,,
mr_post,post_ecmo,,radio,"385. Post-ECMO MR","0, None | 1, Trace | 2, Mild | 3, Moderate | 4, Severe",,,,,,,,,,,,
ms_post,post_ecmo,,radio,"386. Post-ECMO MS","0, None | 1, Trace | 2, Mild | 3, Moderate | 4, Severe",,,,,,,,,,,,
tr_post,post_ecmo,,radio,"387. Post-ECMO TR","0, None | 1, Trace | 2, Mild | 3, Moderate | 4, Severe",,,,,,,,,,,,
serial_echos_post,post_ecmo,,radio,"388. Serial Echos","0, Yes | 1, No",,,,,,,,,,,,
pulm_map_post,post_ecmo,Hemodynamics,text,"389. Post-ECMO PA MAP",,mmHg,number,,,,[study_design]='0',,,,,,
pcwp_post,post_ecmo,,text,"390. Post-ECMO PCWP",,mmHg,number,,,,[study_design]='0',,,,,,
cvp_rap_post,post_ecmo,,text,"391. Post-ECMO CVP/RAP",,mmHg,number,,,,[study_design]='0',,,,,,
svo2_post,post_ecmo,,text,"392. Post-ECMO SVO2",,,number,,,,[study_design]='0',,,,,,
co_post,post_ecmo,,text,"393. Post-ECMO CO",,L/min,number,,,,[study_design]='0',,,,,,
status,outcomes,,dropdown,"394. Status","0, Alive | 1, Dead",,,,,,,,,,,,
status_date,outcomes,,text,"395. Status Date",,"Last Date of Confirmation",date_mdy,,,,,,,,,,
death_during_hosp,outcomes,,radio,"396. Death During Hospitalization","0, Yes | 1, No","In reference to index hospitalization",,,,,[status]='1',,,,,,
patient_decann,outcomes,,radio,"397. Was the patient weaned off ECMO?","0, Yes | 1, No",,,,,,,,,,,,
decann_date,outcomes,,text,"398. Date of Decannulation",,"Last Date of Confirmation",date_mdy,,,,[patient_decann]='0',,,,,,
cause_death,outcomes,,checkbox,"399. Cause of Death","0, Asystole | 1, Bleeding | 2, Circuit Malfunction | 3, Infection | 4, Multiple System Organ Failure | 5, Neurological | 6, Withdrawal of Care | 7, Other",,,,,,[status]='1',,,,,,
cause_death_otr,outcomes,,text,"400. Other Cause of Death",,,,,,,[cause_death(7)]='1',,,,,,
timing_withdrawal,outcomes,,radio,"401. Timing of withdrawal of care","0, After decannulation | 1, While on ECMO",,,,,,[cause_death(6)]='1',,,,,,
reason_withdrawal,outcomes,,radio,"402. Reason for Withdrawal","0, Family/Patient's Will | 1, Futile Care",,,,,,[cause_death(6)]='1',,,,,,
best_ambul_cond,outcomes,"ICU Data",radio,"403. Best Ambulatory Condition in ICU during ECMO","0, None | 1, Chair | 2, Stand | 3, Walk",,,,,,,,,,,,
out_bed_date,outcomes,,text,"404. Out of bed date",,,date_mdy,,,,"[best_ambul_cond]='1' or [best_ambul_cond]='2' or [best_ambul_cond]='3'",,,,,,
icu_discharge_date,outcomes,"Discharge Information",text,"405. ICU discharge date",,,date_mdy,,,y,,,,,,,
icu_discharge_loc,outcomes,,radio,"406. ICU discharge location","0, Another acute care hospital | 1, Hospice | 2, In ICU Death | 3, Skilled nursing facility | 4, Ward | 5, Other",,,,,,[study_design]='0',,,,,,
icu_discharge_loc_otr,outcomes,,text,"407. Other ICU discharge",,,,,,,[icu_discharge_loc]='5',,,,,,
first_icu_los,outcomes,,calc,"408. ICU LOS","datediff([icu_admit_date], [icu_discharge_date], ""d"", ""mdy"")",,,,,,,,,,,,
icu_readmit,outcomes,,radio,"409. Did the patient have an ICU readmission during the same hospital stay?","0, Yes | 1, No",,,,,,[study_design]='0',,,,,,
icu_readmit_reason,outcomes,,checkbox,"410. Reason for ICU readmission","0, Acute Coronary Syndrome | 1, Cardiac Surgery (not transplant) | 2, Cardiogenic shock | 3, Cardiomyopathy - Ischemic | 4, Cardiomyopathy - Non-ischemic | 5, Infection | 6, Respiratory Failure - Hypercarbia | 7, Respiratory Failure - Hypoxemia | 8, Transplantation - Lung | 9, Transplantation - Heart | 10, Other",,,,,,[icu_readmit]='0',,,,,,
icu_readmit_otr,outcomes,,text,"411. Other Reason for ICU Readmission",,,,,,,[icu_readmit_reason(10)]='1',,,,,,
hosp_discharge_date,outcomes,,text,"412. Hospital discharge date",,"If patient died, put in date of death",date_mdy,,,y,,,,,,,
hosp_discharge_loc,outcomes,,radio,"413. Hospital discharge location","0, Another acute care facility (e.g., LTAC, rehab, subacute rehab) | 1, Home | 2, Hospice | 3, In-hospital death | 4, Skilled nursing facility | 5, Other",,,,,,[study_design]='0',,,,,,
hosp_discharge_loc_otr,outcomes,,text,"414. Other discharge location",,,,,,,[hosp_discharge_loc]='5',,,,,,
hosp_los,outcomes,,calc,"415. Hospital LOS","datediff([hosp_admit_date], [hosp_discharge_date], ""d"", ""mdy"")",,,,,,,,,,,,
hosp_readmit_within_30_days,outcomes,,radio,"416. Hospital readmission within 30 days of discharge","0, Yes | 1, No",,,,,,[study_design]='0',,,,,,
hosp_readmit_reason,outcomes,,checkbox,"417. Reason for Hospital readmission","0, Acute Coronary Syndrome | 1, Cardiac Surgery (not transplant) | 2, Cardiogenic shock | 3, Cardiomyopathy - Ischemic | 4, Cardiomyopathy - Non-ischemic | 5, Infection | 6, Respiratory Failure - Hypercarbia | 7, Respiratory Failure - Hypoxemia | 8, Transplantation - Lung | 9, Transplantation - Heart | 10, Other",,,,,,[hosp_readmit_within_30_days]='0',,,,,,
hosp_readmit_reason_otr,outcomes,,text,"418. Other Reason for ICU Readmission",,,,,,,[icu_readmit_reason(10)]='1',,,,,,
ecmo_cardiac_proc_1,outcomes,"Procedures and Outcomes",radio,"419. 1st Cardiothoracic procedure","0, CABG | 1, Heart valve replacement | 2, Impella | 3, LVAD | 4, PCI | 5, RVAD | 6, Transplantation - Heart | 7, Transplantation - Lung | 8, None | 9, Other","After ECMO initiation, until hosp. discharge",,,,,,,,,,,
ecmo_cardiac_proc_1_otr,outcomes,,text,"420. Other 1st Cardiac Procedure",,,,,,,[ecmo_cardiac_proc_1]='9',,,,,,
ecmo_cardiac_proc_1_date,outcomes,,text,"421. Date of 1st Cardiac Procedure ([ecmo_cardiac_proc_1])",,,,,,y,"[ecmo_cardiac_proc_1]='0' or [ecmo_cardiac_proc_1]='1' or [ecmo_cardiac_proc_1]='2' or [ecmo_cardiac_proc_1]='3' or [ecmo_cardiac_proc_1]='4' or [ecmo_cardiac_proc_1]='5' or [ecmo_cardiac_proc_1]='6' or [ecmo_cardiac_proc_1]='7' or [ecmo_cardiac_proc_1]='9'",,,,,,
ecmo_cardiac_proc_2,outcomes,,radio,"422. 2nd Cardiothoracic procedure","0, CABG | 1, Heart valve replacement | 2, Impella | 3, LVAD | 4, PCI | 5, RVAD | 6, Transplantation - Heart | 7, Transplantation - Lung | 8, None | 9, Other","After ECMO initiation, until hosp. discharge",,,,,"[ecmo_cardiac_proc_1]='0' or [ecmo_cardiac_proc_1]='1' or [ecmo_cardiac_proc_1]='2' or [ecmo_cardiac_proc_1]='3' or [ecmo_cardiac_proc_1]='4' or [ecmo_cardiac_proc_1]='5' or [ecmo_cardiac_proc_1]='6' or [ecmo_cardiac_proc_1]='7' or [ecmo_cardiac_proc_1]='9'",,,,,,
ecmo_cardiac_proc_2_otr,outcomes,,text,"423. Other 2nd Cardiac Procedure",,,,,,,[ecmo_cardiac_proc_2]='9',,,,,,
ecmo_cardiac_proc_2_date,outcomes,,text,"424. Date of 2nd Cardiac Procedure ([ecmo_cardiac_proc_2])",,,,,,y,"[ecmo_cardiac_proc_2]='0' or [ecmo_cardiac_proc_2]='1' or [ecmo_cardiac_proc_2]='2' or [ecmo_cardiac_proc_2]='3' or [ecmo_cardiac_proc_2]='4' or [ecmo_cardiac_proc_2]='5' or [ecmo_cardiac_proc_2]='6' or [ecmo_cardiac_proc_2]='7' or [ecmo_cardiac_proc_2]='9'",,,,,,
ecmo_cardiac_proc_3,outcomes,,radio,"425. 3rd Cardiothoracic procedure","0, CABG | 1, Heart valve replacement | 2, Impella | 3, LVAD | 4, PCI | 5, RVAD | 6, Transplantation - Heart | 7, Transplantation - Lung | 8, None | 9, Other","After ECMO initiation, until hosp. discharge",,,,,"[ecmo_cardiac_proc_2]='0' or [ecmo_cardiac_proc_2]='1' or [ecmo_cardiac_proc_2]='2' or [ecmo_cardiac_proc_2]='3' or [ecmo_cardiac_proc_2]='4' or [ecmo_cardiac_proc_2]='5' or [ecmo_cardiac_proc_2]='6' or [ecmo_cardiac_proc_2]='7' or [ecmo_cardiac_proc_2]='9'",,,,,,
ecmo_cardiac_proc_3_otr,outcomes,,text,"426. Other 3rd Cardiac Procedure",,,,,,,[ecmo_cardiac_proc_3]='9',,,,,,
ecmo_cardiac_proc_3_date,outcomes,,text,"427. Date of 3rd Cardiac Procedure ([ecmo_cardiac_proc_3])",,,,,,y,"[ecmo_cardiac_proc_3]='0' or [ecmo_cardiac_proc_3]='1' or [ecmo_cardiac_proc_3]='2' or [ecmo_cardiac_proc_3]='3' or [ecmo_cardiac_proc_3]='4' or [ecmo_cardiac_proc_3]='5' or [ecmo_cardiac_proc_3]='6' or [ecmo_cardiac_proc_3]='7' or [ecmo_cardiac_proc_3]='9'",,,,,,
decann_tools,outcomes,,radio,"428. Tools used to wean off ECMO","0, Bridge to durable MCSD | 1, Balloon Pump | 2, Death | 3, Heart Transplant | 4, Inotropic Support | 5, Myocardial recovery - Inotrope dependent | 6, Myocardial recover - Inotrope independent | 7, No support (recovery) | 8, Temporary LVAD | 9, Temporary RVAD | 10, None | 11, Other",,,,,,,,,,,,
decann_tools_otr,outcomes,,text,"429. Other Decannulation Tools",,,,,,,"[decann_tools] = '11'",,,,,,
chest_related_cmp,outcomes,"Lung Related Complications/Outcomes",checkbox,"430. Chest-related complications","0, Hemothorax | 1, Pneumothorax | 2, Pneumonia | 3, None | 4, Other",,,,,,[ecmo_mode]='0',,,,,,
chest_related_cmp_otr,outcomes,,text,"430.1. Other Chest-related complication",,,,,,,"[chest_related_cmp(4)] = '1'",,,,,,
chest_related_cmp_date,outcomes,,text,"430.2. Date of Chest-related complications",,,date_mdy,,,,"[chest_related_cmp(0)] = '1' or [chest_related_cmp(1)] = '1' or [chest_related_cmp(2)] = '1' or [chest_related_cmp(4)] = '1'",,,,,,
trach,outcomes,,radio,"431. Tracheostomy","0, Yes | 1, No",,,,,,[ecmo_mode]='0',,,,,,
trach_date,outcomes,,text,"432. Tracheostomy Date",,,date_mdy,,,,"[trach]='0' and [ecmo_mode]='0'",,,,,,
ventilator_ext_date,outcomes,,text,"433. Date of extubation",,,date_mdy,,,y,[ventilator]='0',,,,,,
ext_pre_decann,outcomes,,radio,"434. Extubation prior to decannulation","0, Yes | 1, No",,,,,,[ventilator]='0',,,,,,
re_intubation,outcomes,,radio,"435. Reintubation","0, Yes | 1, No",,,,,,[ecmo_mode]='0',,,,,,
re_intubation_date,outcomes,,text,"436. Reintubation Date",,,date_mdy,,,,[ecmo_mode]='0',,,,,,
pulm_outcomes,outcomes,,checkbox,"437. Pulmonary Outcomes","1, Oxygen therapy at time of discharge | 4, Discharged to At-home Oxygen | 5, Recovery (breathing room air) | 2, Other | 3, None",,,,,,,,,,,,
pulm_outcomes_otr,outcomes,,text,"438. Other pulmonary outcomes",,,,,,,[pulm_outcomes(2)]='1',,,,,,
fio2_discharge,outcomes,,text,"439. Discharge FiO2",,%,number,,,,"[pulm_outcomes(1)] = '1'",,,,,,
spo2_discharge,outcomes,,text,"440. Discharge SpO2",,,number,,,,"[pulm_outcomes(1)] = '1'",,,,,,
s_f_ratio_discharge,outcomes,,calc,"441. Discharge SpO2/FiO2 ratio","[spo2_discharge] / [fio2_discharge] * 100",,,,,,"[pulm_outcomes(1)] = '1'",,,,,,
vasc_cmp_type,outcomes,"Vascular Complications",checkbox,"442. Vascular Complication Type","0, Bleeding that requires PRBC transfusion or invasive procedures | 1, DVT | 2, Hyperperfusion | 3, Hypoperfusion/limb ischemia | 4, None | 5, Other",,,,,,,,,,,,
vasc_cmp_otr,outcomes,,text,"443. Vascular Complication Other",,,,,,,[vasc_cmp_type(5)]='1',,,,,,
vasc_cmp_date,outcomes,,text,"444. Vascular Complications Date",,,date_mdy,,,,"[vasc_cmp_type(0)]='1' or [vasc_cmp_type(1)]='1' or [vasc_cmp_type(2)]='1' or [vasc_cmp_type(3)]='1' or [vasc_cmp_type(5)]='1'",,,,,,
vasc_cmp_treat_bleed,outcomes,,checkbox,"445. Treatment for bleeding","0, Relocation of cannula | 1, Vessel repair",,,,,,[vasc_cmp_type(0)]='1',,,,,,
vasc_cmp_treat_hyperperf,outcomes,,checkbox,"446. Treatment for Hyperperfusion","0, Adding additional drainage cannula | 1, Distal banding | 2, Relocation of venous cannula",,,,,,[vasc_cmp_type(2)]='1',,,,,,
vasc_cmp_treat_hypoperf,outcomes,,checkbox,"447. Treatment for Hypoperfusion/Limb ischemia","0, Additional perfusion cannula | 1, Amputation | 2, Fasciotomy | 3, Relocation of cannula | 4, Vascular repair",,,,,,[vasc_cmp_type(3)]='1',,,,,,
thrombotic_cmp,outcomes,,checkbox,"448. Thrombotic Complications","0, Deep Venous Thrombosis | 1, Pulmonary Embolism | 2, Clinically Significant Coagulopathy | 3, Disseminated Intravascular Coagulopathy | 4, None","While one ECMO unless otherwise specified",,,,,,,,,,,
thrombotic_cmp_date,outcomes,,text,"449. Thrombotic Complication Date",,,datetime_mdy,,,,"[thrombotic_cmp(0)] = '1' or [thrombotic_cmp(1)] = '1' or [thrombotic_cmp(2)] = '1' or [thrombotic_cmp(3)] = '1'",,,,,,
lv_thrombus,outcomes,,radio,"450. LV Thrombus","0, Yes | 1, No",,,,,,,,,,,,
lv_thrombus_date,outcomes,,text,"450.1. Date of LV Thrombus",,,date_mdy,,,,,,,,,,
circuit_related_hemolysis_ldh,outcomes,,text,"451. Circuit Related Hemolysis LDH (if applicable)",,,,,,,,,,,,,
bleedev_1_src,outcomes,,radio,"452. Source of 1st Major Bleeding Event (if applicable)","0, Cannula Site Bleed | 1, ENT - Nose bleed | 2, ENT - Oropharyngeal Bleed | 3, ENT - Unspecified / Other | 4, GI - Upper (esophagus, stomach, duodenum, small bowel) | 5, GI - lower (colon, rectum, anus) | 6, GI - unknown, but guaiac positive stools | 7, Intra-abdominal | 8, Mediastinal - chest wall | 9, Mediastinal - outflow-aorta anastomosis | 10, Mediastinal - outflow conduit | 11, Mediastinal - inflow conduit | 12, Mediastinal - aortic-venous cannulation site | 13, Mediastinal - coagulopathy with no surgical site | 14, Mediastinal - other surgical site | 15, Mediastinal - Unspecified | 16, Pleural space | 17, Pulmonary | 18, Pump pocket | 19, Urinary tract | 20, None | 21, Other",,,,,,,,,,,,
bleedev_1_src_otr,outcomes,,text,"453. Other Source of 1st Major Bleeding Event",,,,,,,[bleedev_1_src]='21',,,,,,
bleedev_1_date,outcomes,,text,"454. Bleeding Event Date 1",,,date_mdy,,,y,"[bleedev_1_src]='0' or [bleedev_1_src]='1' or [bleedev_1_src]='2' or [bleedev_1_src]='3' or [bleedev_1_src]='4' or [bleedev_1_src]='5' or [bleedev_1_src]='6' or [bleedev_1_src]='7' or [bleedev_1_src]='8' or [bleedev_1_src]='9' or [bleedev_1_src]='10' or [bleedev_1_src]='11' or [bleedev_1_src]='12' or [bleedev_1_src]='13' or [bleedev_1_src]='14' or [bleedev_1_src]='15' or [bleedev_1_src]='16' or [bleedev_1_src]='17' or [bleedev_1_src]='18' or [bleedev_1_src]='19' or [bleedev_1_src]='21'",,,,,,
bleedev_1_inr,outcomes,,text,"455. Major Bleeding Event 1: INR",,,,,,,"[bleedev_1_src]='0' or [bleedev_1_src]='1' or [bleedev_1_src]='2' or [bleedev_1_src]='3' or [bleedev_1_src]='4' or [bleedev_1_src]='5' or [bleedev_1_src]='6' or [bleedev_1_src]='7' or [bleedev_1_src]='8' or [bleedev_1_src]='9' or [bleedev_1_src]='10' or [bleedev_1_src]='11' or [bleedev_1_src]='12' or [bleedev_1_src]='13' or [bleedev_1_src]='14' or [bleedev_1_src]='15' or [bleedev_1_src]='16' or [bleedev_1_src]='17' or [bleedev_1_src]='18' or [bleedev_1_src]='19' or [bleedev_1_src]='21'",,,,,,
bleedev_1_reop,outcomes,,radio,"456. 1st Bleeding Event → Reoperation?","0, Change of Cannula Site | 1, Re-exploration | 2, Repair | 3, None",,,,,,"[bleedev_1_src]='0' or [bleedev_1_src]='1' or [bleedev_1_src]='2' or [bleedev_1_src]='3' or [bleedev_1_src]='4' or [bleedev_1_src]='5' or [bleedev_1_src]='6' or [bleedev_1_src]='7' or [bleedev_1_src]='8' or [bleedev_1_src]='9' or [bleedev_1_src]='10' or [bleedev_1_src]='11' or [bleedev_1_src]='12' or [bleedev_1_src]='13' or [bleedev_1_src]='14' or [bleedev_1_src]='15' or [bleedev_1_src]='16' or [bleedev_1_src]='17' or [bleedev_1_src]='18' or [bleedev_1_src]='19' or [bleedev_1_src]='21'",,,,,,
bleedev_1_transfusion,outcomes,,radio,"457. Bleeding Event Transfusion 1","0, Yes | 1, No",,,,,,"[bleedev_1_src]='0' or [bleedev_1_src]='1' or [bleedev_1_src]='2' or [bleedev_1_src]='3' or [bleedev_1_src]='4' or [bleedev_1_src]='5' or [bleedev_1_src]='6' or [bleedev_1_src]='7' or [bleedev_1_src]='8' or [bleedev_1_src]='9' or [bleedev_1_src]='10' or [bleedev_1_src]='11' or [bleedev_1_src]='12' or [bleedev_1_src]='13' or [bleedev_1_src]='14' or [bleedev_1_src]='15' or [bleedev_1_src]='16' or [bleedev_1_src]='17' or [bleedev_1_src]='18' or [bleedev_1_src]='19' or [bleedev_1_src]='21'",,,,,,
bleedev_1_transfusion_amount,outcomes,,text,"458. Units of PRBC given",,,number,,,,[bleedev_1_transfusion]='0',,,,,,
bleedev_1_anticoag,outcomes,,radio,"459. Major Bleeding Event 1 Anticoag","0, Argatroban | 1, Aspirin | 2, Bivalirudin | 3, Clopidogrel (Plavix) | 4, Dextran | 5, Dipyridamole | 6, Fondaparinux | 7, Heparin | 8, Hirudin | 9, Lepirudin | 10, Lovenox | 11, Ticlopidine | 12, Warfarin | 13, Ximelagatran | 14, None | 15, Other",,,,,,"[bleedev_1_src]='0' or [bleedev_1_src]='1' or [bleedev_1_src]='2' or [bleedev_1_src]='3' or [bleedev_1_src]='4' or [bleedev_1_src]='5' or [bleedev_1_src]='6' or [bleedev_1_src]='7' or [bleedev_1_src]='8' or [bleedev_1_src]='9' or [bleedev_1_src]='10' or [bleedev_1_src]='11' or [bleedev_1_src]='12' or [bleedev_1_src]='13' or [bleedev_1_src]='14' or [bleedev_1_src]='15' or [bleedev_1_src]='16' or [bleedev_1_src]='17' or [bleedev_1_src]='18' or [bleedev_1_src]='19' or [bleedev_1_src]='21'",,,,,,
bleedev_1_resolution,outcomes,,radio,"460. Major Bleeding Event 1 Resolution","0, Complete Cessation of Anticoagulation (Heparin, Bivalirudin, etc.) | 1, Blood transfusion (ffp/cryo/platelets) | 2, Procoagulant(Factor VII, PCC etc) | 3, Packing/topical pressure | 4, Surgical intervention of hemostasis (including cauterization, suture hemostasis) | 5, Other | 6, None",,,,,,"[bleedev_1_src]='0' or [bleedev_1_src]='1' or [bleedev_1_src]='2' or [bleedev_1_src]='3' or [bleedev_1_src]='4' or [bleedev_1_src]='5' or [bleedev_1_src]='6' or [bleedev_1_src]='7' or [bleedev_1_src]='8' or [bleedev_1_src]='9' or [bleedev_1_src]='10' or [bleedev_1_src]='11' or [bleedev_1_src]='12' or [bleedev_1_src]='13' or [bleedev_1_src]='14' or [bleedev_1_src]='15' or [bleedev_1_src]='16' or [bleedev_1_src]='17' or [bleedev_1_src]='18' or [bleedev_1_src]='19' or [bleedev_1_src]='21'",,,,,,
bleedev_2_src,outcomes,,radio,"461. Source of 2nd Major Bleeding Event (if applicable)","0, Cannula Site Bleed | 1, ENT - Nose bleed | 2, ENT - Oropharyngeal Bleed | 3, ENT - Unspecified / Other | 4, GI - Upper (esophagus, stomach, duodenum, small bowel) | 5, GI - lower (colon, rectum, anus) | 6, GI - unknown, but guaiac positive stools | 7, Intra-abdominal | 8, Mediastinal - chest wall | 9, Mediastinal - outflow-aorta anastomosis | 10, Mediastinal - outflow conduit | 11, Mediastinal - inflow conduit | 12, Mediastinal - aortic-venous cannulation site | 13, Mediastinal - coagulopathy with no surgical site | 14, Mediastinal - other surgical site | 15, Mediastinal - Unspecified | 16, Pleural space | 17, Pulmonary | 18, Pump pocket | 19, Urinary tract | 20, None | 21, Other",,,,,,"[bleedev_1_src]='0' or [bleedev_1_src]='1' or [bleedev_1_src]='2' or [bleedev_1_src]='3' or [bleedev_1_src]='4' or [bleedev_1_src]='5' or [bleedev_1_src]='6' or [bleedev_1_src]='7' or [bleedev_1_src]='8' or [bleedev_1_src]='9' or [bleedev_1_src]='10' or [bleedev_1_src]='11' or [bleedev_1_src]='12' or [bleedev_1_src]='13' or [bleedev_1_src]='14' or [bleedev_1_src]='15' or [bleedev_1_src]='16' or [bleedev_1_src]='17' or [bleedev_1_src]='18' or [bleedev_1_src]='19' or [bleedev_1_src]='21'",,,,,,
bleedev_2_src_otr,outcomes,,text,"462. Other Source of 2nd Major Bleeding Event",,,,,,,[bleedev_2_src]='21',,,,,,
bleedev_2_date,outcomes,,text,"463. Major Bleeding Event 2: Date",,,date_mdy,,,y,"[bleedev_2_src]='0' or [bleedev_2_src]='1' or [bleedev_2_src]='2' or [bleedev_2_src]='3' or [bleedev_2_src]='4' or [bleedev_2_src]='5' or [bleedev_2_src]='6' or [bleedev_2_src]='7' or [bleedev_2_src]='8' or [bleedev_2_src]='9' or [bleedev_2_src]='10' or [bleedev_2_src]='11' or [bleedev_2_src]='12' or [bleedev_2_src]='13' or [bleedev_2_src]='14' or [bleedev_2_src]='15' or [bleedev_2_src]='16' or [bleedev_2_src]='17' or [bleedev_2_src]='18' or [bleedev_2_src]='19' or [bleedev_2_src]='21'",,,,,,
bleedev_2_inr,outcomes,,text,"464. Major Bleeding Event 2: INR",,,,,,,"[bleedev_2_src]='0' or [bleedev_2_src]='1' or [bleedev_2_src]='2' or [bleedev_2_src]='3' or [bleedev_2_src]='4' or [bleedev_2_src]='5' or [bleedev_2_src]='6' or [bleedev_2_src]='7' or [bleedev_2_src]='8' or [bleedev_2_src]='9' or [bleedev_2_src]='10' or [bleedev_2_src]='11' or [bleedev_2_src]='12' or [bleedev_2_src]='13' or [bleedev_2_src]='14' or [bleedev_2_src]='15' or [bleedev_2_src]='16' or [bleedev_2_src]='17' or [bleedev_2_src]='18' or [bleedev_2_src]='19' or [bleedev_2_src]='21'",,,,,,
bleedev_2_reop,outcomes,,radio,"465. 2nd Bleeding Event → Reoperation?","0, Change of Cannula Site | 1, Re-exploration | 2, Repair | 3, None",,,,,,"[bleedev_2_src]='0' or [bleedev_2_src]='1' or [bleedev_2_src]='2' or [bleedev_2_src]='3' or [bleedev_2_src]='4' or [bleedev_2_src]='5' or [bleedev_2_src]='6' or [bleedev_2_src]='7' or [bleedev_2_src]='8' or [bleedev_2_src]='9' or [bleedev_2_src]='10' or [bleedev_2_src]='11' or [bleedev_2_src]='12' or [bleedev_2_src]='13' or [bleedev_2_src]='14' or [bleedev_2_src]='15' or [bleedev_2_src]='16' or [bleedev_2_src]='17' or [bleedev_2_src]='18' or [bleedev_2_src]='19' or [bleedev_2_src]='21'",,,,,,
bleedev_2_transfusion,outcomes,,radio,"466. Major Bleeding Event 2: Transfusion","0, Yes | 1, No",,,,,,"[bleedev_2_src]='0' or [bleedev_2_src]='1' or [bleedev_2_src]='2' or [bleedev_2_src]='3' or [bleedev_2_src]='4' or [bleedev_2_src]='5' or [bleedev_2_src]='6' or [bleedev_2_src]='7' or [bleedev_2_src]='8' or [bleedev_2_src]='9' or [bleedev_2_src]='10' or [bleedev_2_src]='11' or [bleedev_2_src]='12' or [bleedev_2_src]='13' or [bleedev_2_src]='14' or [bleedev_2_src]='15' or [bleedev_2_src]='16' or [bleedev_2_src]='17' or [bleedev_2_src]='18' or [bleedev_2_src]='19' or [bleedev_2_src]='21'",,,,,,
bleedev_2_transfusion_amount,outcomes,,text,"467. Units of PRBC given",,,number,,,,[bleedev_2_transfusion]='0',,,,,,
bleedev_2_anticoag,outcomes,,radio,"468. Major Bleeding Event 2: Anticoagulation","0, Argatroban | 1, Aspirin | 2, Bivalirudin | 3, Clopidogrel (Plavix) | 4, Dextran | 5, Dipyridamole | 6, Fondaparinux | 7, Heparin | 8, Hirudin | 9, Lepirudin | 10, Lovenox | 11, Ticlopidine | 12, Warfarin | 13, Ximelagatran | 14, None | 15, Other",,,,,,"[bleedev_2_src]='0' or [bleedev_2_src]='1' or [bleedev_2_src]='2' or [bleedev_2_src]='3' or [bleedev_2_src]='4' or [bleedev_2_src]='5' or [bleedev_2_src]='6' or [bleedev_2_src]='7' or [bleedev_2_src]='8' or [bleedev_2_src]='9' or [bleedev_2_src]='10' or [bleedev_2_src]='11' or [bleedev_2_src]='12' or [bleedev_2_src]='13' or [bleedev_2_src]='14' or [bleedev_2_src]='15' or [bleedev_2_src]='16' or [bleedev_2_src]='17' or [bleedev_2_src]='18' or [bleedev_2_src]='19' or [bleedev_2_src]='21'",,,,,,
bleedev_2_resolution,outcomes,,radio,"469. Major Bleeding Event 2: Resolution","0, Complete Cessation of Anticoagulation (Heparin, Bivalirudin, etc.) | 1, Blood transfusion (ffp/cryo/platelets) | 2, Procoagulant(Factor VII, PCC etc) | 3, Packing/topical pressure | 4, Surgical intervention of hemostasis (including cauterization, suture hemostasis) | 5, Other | 6, None",,,,,,"[bleedev_2_src]='0' or [bleedev_2_src]='1' or [bleedev_2_src]='2' or [bleedev_2_src]='3' or [bleedev_2_src]='4' or [bleedev_2_src]='5' or [bleedev_2_src]='6' or [bleedev_2_src]='7' or [bleedev_2_src]='8' or [bleedev_2_src]='9' or [bleedev_2_src]='10' or [bleedev_2_src]='11' or [bleedev_2_src]='12' or [bleedev_2_src]='13' or [bleedev_2_src]='14' or [bleedev_2_src]='15' or [bleedev_2_src]='16' or [bleedev_2_src]='17' or [bleedev_2_src]='18' or [bleedev_2_src]='19' or [bleedev_2_src]='21'",,,,,,
bleedev_3_src,outcomes,,radio,"470. Source of 3rd Major Bleeding Event (if applicable)","0, Cannula Site Bleed | 1, ENT - Nose bleed | 2, ENT - Oropharyngeal Bleed | 3, ENT - Unspecified / Other | 4, GI - Upper (esophagus, stomach, duodenum, small bowel) | 5, GI - lower (colon, rectum, anus) | 6, GI - unknown, but guaiac positive stools | 7, Intra-abdominal | 8, Mediastinal - chest wall | 9, Mediastinal - outflow-aorta anastamosis | 10, Mediastinal - outflow conduit | 11, Mediastinal - inflow conduit | 12, Mediastinal - aortic-venous cannulation site | 13, Mediastinal - coagulopathy with no surgical site | 14, Mediastinal - other surgical site | 15, Mediastinal - Unspecified | 16, Pleural space | 17, Pulmonary | 18, Pump pocket | 19, Urinary tract | 20, None | 21, Other",,,,,,"[bleedev_2_src]='0' or [bleedev_2_src]='1' or [bleedev_2_src]='2' or [bleedev_2_src]='3' or [bleedev_2_src]='4' or [bleedev_2_src]='5' or [bleedev_2_src]='6' or [bleedev_2_src]='7' or [bleedev_2_src]='8' or [bleedev_2_src]='9' or [bleedev_2_src]='10' or [bleedev_2_src]='11' or [bleedev_2_src]='12' or [bleedev_2_src]='13' or [bleedev_2_src]='14' or [bleedev_2_src]='15' or [bleedev_2_src]='16' or [bleedev_2_src]='17' or [bleedev_2_src]='18' or [bleedev_2_src]='19' or [bleedev_2_src]='21'",,,,,,
bleedev_3_src_otr,outcomes,,text,"471. Other Source of 3rd Major Bleeding Event",,,,,,,[bleedev_3_src]='21',,,,,,
bleedev_3_date,outcomes,,text,"472. Major Bleeding Event 3: Date",,,date_mdy,,,y,"[bleedev_3_src]='0' or [bleedev_3_src]='1' or [bleedev_3_src]='2' or [bleedev_3_src]='3' or [bleedev_3_src]='4' or [bleedev_3_src]='5' or [bleedev_3_src]='6' or [bleedev_3_src]='7' or [bleedev_3_src]='8' or [bleedev_3_src]='9' or [bleedev_3_src]='10' or [bleedev_3_src]='11' or [bleedev_3_src]='12' or [bleedev_3_src]='13' or [bleedev_3_src]='14' or [bleedev_3_src]='15' or [bleedev_3_src]='16' or [bleedev_3_src]='17' or [bleedev_3_src]='18' or [bleedev_3_src]='19' or [bleedev_3_src]='21'",,,,,,
bleedev_3_inr,outcomes,,text,"473. Major Bleeding Event 3: INR",,,,,,,"[bleedev_3_src]='0' or [bleedev_3_src]='1' or [bleedev_3_src]='2' or [bleedev_3_src]='3' or [bleedev_3_src]='4' or [bleedev_3_src]='5' or [bleedev_3_src]='6' or [bleedev_3_src]='7' or [bleedev_3_src]='8' or [bleedev_3_src]='9' or [bleedev_3_src]='10' or [bleedev_3_src]='11' or [bleedev_3_src]='12' or [bleedev_3_src]='13' or [bleedev_3_src]='14' or [bleedev_3_src]='15' or [bleedev_3_src]='16' or [bleedev_3_src]='17' or [bleedev_3_src]='18' or [bleedev_3_src]='19' or [bleedev_3_src]='21'",,,,,,
bleedev_3_reop,outcomes,,radio,"474. Major Bleeding Event 3 → Reoperation?","0, Change of Cannula Site | 1, Re-exploration | 2, Repair | 3, None",,,,,,"[bleedev_3_src]='0' or [bleedev_3_src]='1' or [bleedev_3_src]='2' or [bleedev_3_src]='3' or [bleedev_3_src]='4' or [bleedev_3_src]='5' or [bleedev_3_src]='6' or [bleedev_3_src]='7' or [bleedev_3_src]='8' or [bleedev_3_src]='9' or [bleedev_3_src]='10' or [bleedev_3_src]='11' or [bleedev_3_src]='12' or [bleedev_3_src]='13' or [bleedev_3_src]='14' or [bleedev_3_src]='15' or [bleedev_3_src]='16' or [bleedev_3_src]='17' or [bleedev_3_src]='18' or [bleedev_3_src]='19' or [bleedev_3_src]='21'",,,,,,
bleedev_3_transfusion,outcomes,,radio,"475. Major Bleeding Event 3: Transfusion","0, Yes | 1, No",,,,,,"[bleedev_3_src]='0' or [bleedev_3_src]='1' or [bleedev_3_src]='2' or [bleedev_3_src]='3' or [bleedev_3_src]='4' or [bleedev_3_src]='5' or [bleedev_3_src]='6' or [bleedev_3_src]='7' or [bleedev_3_src]='8' or [bleedev_3_src]='9' or [bleedev_3_src]='10' or [bleedev_3_src]='11' or [bleedev_3_src]='12' or [bleedev_3_src]='13' or [bleedev_3_src]='14' or [bleedev_3_src]='15' or [bleedev_3_src]='16' or [bleedev_3_src]='17' or [bleedev_3_src]='18' or [bleedev_3_src]='19' or [bleedev_3_src]='21'",,,,,,
bleedev_3_transfusion_amount,outcomes,,text,"476. Units of PRBC given",,,number,,,,[bleedev_3_transfusion]='0',,,,,,
bleedev_3_anticoag,outcomes,,radio,"477. Major Bleeding Event 3: Anticoagulation","0, Argatroban | 1, Asprin | 2, Bivalirudin | 3, Clopidogrel (Plavix) | 4, Dextran | 5, Dipyridamole | 6, Fondaparinux | 7, Heparin | 8, Hirudin | 9, Lepirudin | 10, Lovenox | 11, Ticlopidine | 12, Warfarin | 13, Ximelagatran | 14, None | 15, Other",,,,,,"[bleedev_3_src]='0' or [bleedev_3_src]='1' or [bleedev_3_src]='2' or [bleedev_3_src]='3' or [bleedev_3_src]='4' or [bleedev_3_src]='5' or [bleedev_3_src]='6' or [bleedev_3_src]='7' or [bleedev_3_src]='8' or [bleedev_3_src]='9' or [bleedev_3_src]='10' or [bleedev_3_src]='11' or [bleedev_3_src]='12' or [bleedev_3_src]='13' or [bleedev_3_src]='14' or [bleedev_3_src]='15' or [bleedev_3_src]='16' or [bleedev_3_src]='17' or [bleedev_3_src]='18' or [bleedev_3_src]='19' or [bleedev_3_src]='21'",,,,,,
bleedev_3_resolution,outcomes,,radio,"478. Major Bleeding Event 3: Resolution","0, Complete Cessation of Anticoagulation (Heparin, Bivalirudin, etc.) | 1, Blood transfusion (ffp/cryo/platelets) | 2, Procoagulant(Factor VII, PCC etc) | 3, Packing/topical pressure | 4, Surgical intervention of hemostasis (including cauterization, suture hemostasis) | 5, Other | 6, None",,,,,,"[bleedev_3_src]='0' or [bleedev_3_src]='1' or [bleedev_3_src]='2' or [bleedev_3_src]='3' or [bleedev_3_src]='4' or [bleedev_3_src]='5' or [bleedev_3_src]='6' or [bleedev_3_src]='7' or [bleedev_3_src]='8' or [bleedev_3_src]='9' or [bleedev_3_src]='10' or [bleedev_3_src]='11' or [bleedev_3_src]='12' or [bleedev_3_src]='13' or [bleedev_3_src]='14' or [bleedev_3_src]='15' or [bleedev_3_src]='16' or [bleedev_3_src]='17' or [bleedev_3_src]='18' or [bleedev_3_src]='19' or [bleedev_3_src]='21'",,,,,,
neuro_cmp,outcomes,"Neurologic Complication",checkbox,"479. Neurologic Complication Type","0, Diffuse Cerebral Edema/Hypoxic Encephalopathy | 1, Encephalopathy and/or delirium at discharge | 2, Intracranial Hemorrhage/Hemorrhagic Stroke | 3, Ischemic Stroke/Embolization | 4, Seizures | 5, None | 6, Other",,,,,,,,,,,,
neuro_cmp_otr,outcomes,,text,"480. Neurologic Complication Other",,,,,,,[neuro_cmp(6)]='1',,,,,,
neuro_cmp_date,outcomes,,text,"481. Neurologic Complication Date",,,date_mdy,,,,"[neuro_cmp(0)]='1' or [neuro_cmp(1)]='1' or [neuro_cmp(2)]='1' or [neuro_cmp(3)]='1' or [neuro_cmp(4)]='1' or [neuro_cmp(6)]='1'",,,,,,
reminder_chronic_dialysis,outcomes,"Renal Complications",descriptive,"482. Reminder: Chronic dialysis was added in form #2.",,,,,,,[past_medical_hx(7)]='1',,,,,,
renal_cmp,outcomes,,radio,"483. Acute Renal Dysfunction","0, Yes | 1, No",,,,,,,,,,,,
renal_cmp_date,outcomes,,text,"484. Renal Complication Date",,,date_mdy,,,,[renal_cmp]='0',,,,,,
cre_discharge,outcomes,,text,"485. Creatinine at Discharge",,,number,,,,,,,,,,
dialysis_discharge,outcomes,,radio,"486. Dialysis at discharge","0, Yes | 1, No",,,,,,,,,,,,
infect_cmp,outcomes,Infection,checkbox,"487. Infectious Complication 1","0, Localized non-device infection | 1, Device related infection | 2, Sepsis | 3, None",,,,,,,,,,,,
infection_site,outcomes,,checkbox,"488. Site of Infection 1","0, Blood Stream | 1, Gastrointestinal | 2, Line | 3, Lungs | 4, UTI | 5, None | 6, Other",,,,,,[infect_cmp(0)]='1',,,,,,
infection_site_otr,outcomes,,text,"489. Other Site of Infection 1",,,,,,,[infection_site(6)]='1',,,,,,
infection_date,outcomes,,text,"490. Infection 1 Date",,,date_mdy,,,,"[infect_cmp(0)] = '1' or [infect_cmp(1)] = '1' or [infect_cmp(2)] = '1'",,,,,,
infection_culture,outcomes,,checkbox,"491. Culture of Infection","0, Gram Positive | 1, Gram Negative | 2, Fungal | 3, Microbacteria",,,,,,"[infect_cmp(0)] = '1' or [infect_cmp(1)] = '1' or [infect_cmp(2)] = '1'",,,,,,
circuit_related_technical_cmp,outcomes,"Circuit Related Technical Complications",checkbox,"492. Circuit Related Technical Complications or Device Malfunction","0, Air Embolism | 1, Cannula Dislodgement | 2, Oxygenator Failure requiring Exchange | 3, Pump Malfunction | 4, Thrombosis requiring circuit change | 5, Tubing Rupture | 6, None",,,,,,,,,,,,
device_malfunction_date,outcomes,,text,"493. Circuit-related Technical complications/Device Malfunction Date",,,date_mdy,,,y,"[circuit_related_technical_cmp(0)]='1' or [circuit_related_technical_cmp(1)]='1' or [circuit_related_technical_cmp(2)]='1' or [circuit_related_technical_cmp(3)]='1' or [circuit_related_technical_cmp(4)]='1' or [circuit_related_technical_cmp(5)]='1'",,,,,,
device_malfunction_cause,outcomes,,text,"494. Device Malfunction Cause",,,,,,,[device_malfunction_date]='0',,,,,,
otr_cmp,outcomes,,checkbox,"495. Other Complications","0, Peripheral Wound | 1, PNA",,,,,,,,,,,,
oxor_ex_1_date,outcomes,"Oxygenator Exchange Events",text,"496. Oxygenator #1 Exchange Date",,,date_mdy,,,,[circuit_related_technical_cmp(2)]='1',,,,,,
oxor_ex_1_reason,outcomes,,checkbox,"497. Oxygenator #1 Exchange Reason","0, Blood Pressure Change | 1, Clot Formation | 2, Device Failure | 3, Membrane Leak | 4, Poor Oxygenation | 5, Suspected Oxygenator Dysfunction",,,,,,[circuit_related_technical_cmp(2)]='1',,,,,,
oxor_ex_1_type,outcomes,,radio,"498. Type of Oxygenator Used for #1","0, Quadrox-1 | 1, Other",,,,,,[circuit_related_technical_cmp(2)]='1',,,,,,
oxor_ex_1_type_otr,outcomes,,text,"499. Other Oxygenator 1",,,,,,,[oxor_ex_1_type]='1',,,,,,
oxor_ex_2,outcomes,,radio,"500. Was oxygenator exchanged a second time?","0, Yes | 1, No",,,,,,[oxor_ex_1_date]<>'',,,,,,
oxor_ex_2_reason,outcomes,,checkbox,"501. Oxygenator #2 Exchange Reason","0, Blood Pressure Change | 1, Clot Formation | 2, Device Failure | 3, Membrane Leak | 4, Poor Oxygenation | 5, Suspected Oxygenator Dysfunction",,,,,,[oxor_ex_2]='0',,,,,,
oxor_ex_2_date,outcomes,,text,"502. Oxygenator #2 Exchange Date",,,date_mdy,,,,[oxor_ex_2]='0',,,,,,
oxor_ex_2_type,outcomes,,radio,"503. Type of Oxygenator Used for #2","0, Quadrox-1 | 1, Other",,,,,,[oxor_ex_2]='0',,,,,,
oxor_ex_2_type_otr,outcomes,,text,"504. Other Oxygenator 2",,,,,,,[oxor_ex_2_type]='1',,,,,,
oxor_ex_3,outcomes,,radio,"505. Was oxygenator exchanged a third time?","0, Yes | 1, No",,,,,,[oxor_ex_2]='0',,,,,,
oxor_ex_3_date,outcomes,,text,"506. Oxygenator #3 Exchange Date",,,date_mdy,,,,[oxor_ex_3]='0',,,,,,
oxor_ex_3_reason,outcomes,,checkbox,"507. Oxygenator #3 Exchange Reason","0, Blood Pressure Change | 1, Clot Formation | 2, Device Failure | 3, Membrane Leak | 4, Poor Oxygenation | 5, Suspected Oxygenator Dysfunction",,,,,,[oxor_ex_3]='0',,,,,,
oxor_ex_3_type,outcomes,,radio,"508. Type of Oxygenator Used for #3","0, Quadrox-1 | 1, Other",,,,,,[oxor_ex_3]='0',,,,,,
oxor_ex_3_type_otr,outcomes,,text,"509. Other Oxygenator 3",,,,,,,[oxor_ex_3_type]='1',,,,,,
